^C:\USERS\MAGSHIMIM\SOURCE\REPOS\TRIVIA\TRIVIA\BUFFER.CPP|C:\USERS\MAGSHIMIM\SOURCE\REPOS\TRIVIA\TRIVIA\COMMUNICATOR.CPP|C:\USERS\MAGSHIMIM\SOURCE\REPOS\TRIVIA\TRIVIA\HANDLERS\IREQUESTHANDLER.CPP|C:\USERS\MAGSHIMIM\SOURCE\REPOS\TRIVIA\TRIVIA\HANDLERS\LOGINREQUESTHANDLER.CPP|C:\USERS\MAGSHIMIM\SOURCE\REPOS\TRIVIA\TRIVIA\HANDLERS\MENUREQUESTHANDLER.CPP|C:\USERS\MAGSHIMIM\SOURCE\REPOS\TRIVIA\TRIVIA\HANDLERS\REQUEST.CPP|C:\USERS\MAGSHIMIM\SOURCE\REPOS\TRIVIA\TRIVIA\HANDLERS\REQUESTRESULT.CPP|C:\USERS\MAGSHIMIM\SOURCE\REPOS\TRIVIA\TRIVIA\HELPER.CPP|C:\USERS\MAGSHIMIM\SOURCE\REPOS\TRIVIA\TRIVIA\IDATABASE.CPP|C:\USERS\MAGSHIMIM\SOURCE\REPOS\TRIVIA\TRIVIA\JSONREQUESTPACKETDESERIALIZER.CPP|C:\USERS\MAGSHIMIM\SOURCE\REPOS\TRIVIA\TRIVIA\JSONRESPONSEPACKETSERIALIZER.CPP|C:\USERS\MAGSHIMIM\SOURCE\REPOS\TRIVIA\TRIVIA\MAIN.CPP|C:\USERS\MAGSHIMIM\SOURCE\REPOS\TRIVIA\TRIVIA\MANAGERS\HIGHSCORETABLE.CPP|C:\USERS\MAGSHIMIM\SOURCE\REPOS\TRIVIA\TRIVIA\MANAGERS\LOGGEDUSER.CPP|C:\USERS\MAGSHIMIM\SOURCE\REPOS\TRIVIA\TRIVIA\MANAGERS\LOGINMANAGER.CPP|C:\USERS\MAGSHIMIM\SOURCE\REPOS\TRIVIA\TRIVIA\MANAGERS\ROOM.CPP|C:\USERS\MAGSHIMIM\SOURCE\REPOS\TRIVIA\TRIVIA\MANAGERS\ROOMDATA.CPP|C:\USERS\MAGSHIMIM\SOURCE\REPOS\TRIVIA\TRIVIA\MANAGERS\ROOMMANAGER.CPP|C:\USERS\MAGSHIMIM\SOURCE\REPOS\TRIVIA\TRIVIA\PROJECTEXCPTIONS.CPP|C:\USERS\MAGSHIMIM\SOURCE\REPOS\TRIVIA\TRIVIA\REQUESTHANDLERFACTORY.CPP|C:\USERS\MAGSHIMIM\SOURCE\REPOS\TRIVIA\TRIVIA\REQUESTS\CREATEROOMREQUEST.CPP|C:\USERS\MAGSHIMIM\SOURCE\REPOS\TRIVIA\TRIVIA\REQUESTS\GETPLAYERSINROOMREQUEST.CPP|C:\USERS\MAGSHIMIM\SOURCE\REPOS\TRIVIA\TRIVIA\REQUESTS\IREQUEST.CPP|C:\USERS\MAGSHIMIM\SOURCE\REPOS\TRIVIA\TRIVIA\REQUESTS\JOINROOMREQUEST.CPP|C:\USERS\MAGSHIMIM\SOURCE\REPOS\TRIVIA\TRIVIA\REQUESTS\LOGINREQUEST.CPP|C:\USERS\MAGSHIMIM\SOURCE\REPOS\TRIVIA\TRIVIA\REQUESTS\SIGNUPREQUEST.CPP|C:\USERS\MAGSHIMIM\SOURCE\REPOS\TRIVIA\TRIVIA\RESPONSES\CREATEROOMRESPONSE.CPP|C:\USERS\MAGSHIMIM\SOURCE\REPOS\TRIVIA\TRIVIA\RESPONSES\ERRORRESPONSE.CPP|C:\USERS\MAGSHIMIM\SOURCE\REPOS\TRIVIA\TRIVIA\RESPONSES\GETPLAYERSINROOMRESPONSE.CPP|C:\USERS\MAGSHIMIM\SOURCE\REPOS\TRIVIA\TRIVIA\RESPONSES\GETROOMSRESPONSE.CPP|C:\USERS\MAGSHIMIM\SOURCE\REPOS\TRIVIA\TRIVIA\RESPONSES\HIGHSCORERESPONSE.CPP|C:\USERS\MAGSHIMIM\SOURCE\REPOS\TRIVIA\TRIVIA\RESPONSES\IRESPONSE.CPP|C:\USERS\MAGSHIMIM\SOURCE\REPOS\TRIVIA\TRIVIA\RESPONSES\JOINROOMRESPONSE.CPP|C:\USERS\MAGSHIMIM\SOURCE\REPOS\TRIVIA\TRIVIA\RESPONSES\LOGINRESPONSE.CPP|C:\USERS\MAGSHIMIM\SOURCE\REPOS\TRIVIA\TRIVIA\RESPONSES\LOGOUTRESPONSE.CPP|C:\USERS\MAGSHIMIM\SOURCE\REPOS\TRIVIA\TRIVIA\RESPONSES\SIGNUPRESPONSE.CPP|C:\USERS\MAGSHIMIM\SOURCE\REPOS\TRIVIA\TRIVIA\SERVER.CPP|C:\USERS\MAGSHIMIM\SOURCE\REPOS\TRIVIA\TRIVIA\SQLITEDATABASE.CPP|C:\USERS\MAGSHIMIM\SOURCE\REPOS\TRIVIA\TRIVIA\WSAINITIALIZER.CPP
C:\USERS\MAGSHIMIM\SOURCE\REPOS\TRIVIA\TRIVIA\DEBUG\VC141.PDB
C:\USERS\MAGSHIMIM\SOURCE\REPOS\TRIVIA\TRIVIA\DEBUG\VC141.IDB
C:\USERS\MAGSHIMIM\SOURCE\REPOS\TRIVIA\TRIVIA\DEBUG\REQUESTHANDLERFACTORY.OBJ
C:\USERS\MAGSHIMIM\SOURCE\REPOS\TRIVIA\TRIVIA\DEBUG\PROJECTEXCPTIONS.OBJ
C:\USERS\MAGSHIMIM\SOURCE\REPOS\TRIVIA\TRIVIA\DEBUG\ROOMMANAGER.OBJ
C:\USERS\MAGSHIMIM\SOURCE\REPOS\TRIVIA\TRIVIA\DEBUG\ROOMDATA.OBJ
C:\USERS\MAGSHIMIM\SOURCE\REPOS\TRIVIA\TRIVIA\DEBUG\ROOM.OBJ
C:\USERS\MAGSHIMIM\SOURCE\REPOS\TRIVIA\TRIVIA\DEBUG\LOGINMANAGER.OBJ
C:\USERS\MAGSHIMIM\SOURCE\REPOS\TRIVIA\TRIVIA\DEBUG\LOGGEDUSER.OBJ
C:\USERS\MAGSHIMIM\SOURCE\REPOS\TRIVIA\TRIVIA\DEBUG\HIGHSCORETABLE.OBJ
C:\USERS\MAGSHIMIM\SOURCE\REPOS\TRIVIA\TRIVIA\DEBUG\IDATABASE.OBJ
C:\USERS\MAGSHIMIM\SOURCE\REPOS\TRIVIA\TRIVIA\DEBUG\MAIN.OBJ
C:\USERS\MAGSHIMIM\SOURCE\REPOS\TRIVIA\TRIVIA\DEBUG\JSONRESPONSEPACKETSERIALIZER.OBJ
C:\USERS\MAGSHIMIM\SOURCE\REPOS\TRIVIA\TRIVIA\DEBUG\JSONREQUESTPACKETDESERIALIZER.OBJ
C:\USERS\MAGSHIMIM\SOURCE\REPOS\TRIVIA\TRIVIA\DEBUG\HELPER.OBJ
C:\USERS\MAGSHIMIM\SOURCE\REPOS\TRIVIA\TRIVIA\DEBUG\REQUESTRESULT.OBJ
C:\USERS\MAGSHIMIM\SOURCE\REPOS\TRIVIA\TRIVIA\DEBUG\REQUEST.OBJ
C:\USERS\MAGSHIMIM\SOURCE\REPOS\TRIVIA\TRIVIA\DEBUG\MENUREQUESTHANDLER.OBJ
C:\USERS\MAGSHIMIM\SOURCE\REPOS\TRIVIA\TRIVIA\DEBUG\LOGINREQUESTHANDLER.OBJ
C:\USERS\MAGSHIMIM\SOURCE\REPOS\TRIVIA\TRIVIA\DEBUG\IREQUESTHANDLER.OBJ
C:\USERS\MAGSHIMIM\SOURCE\REPOS\TRIVIA\TRIVIA\DEBUG\COMMUNICATOR.OBJ
C:\USERS\MAGSHIMIM\SOURCE\REPOS\TRIVIA\TRIVIA\DEBUG\BUFFER.OBJ
C:\USERS\MAGSHIMIM\SOURCE\REPOS\TRIVIA\TRIVIA\DEBUG\WSAINITIALIZER.OBJ
C:\USERS\MAGSHIMIM\SOURCE\REPOS\TRIVIA\TRIVIA\DEBUG\SQLITEDATABASE.OBJ
C:\USERS\MAGSHIMIM\SOURCE\REPOS\TRIVIA\TRIVIA\DEBUG\SERVER.OBJ
C:\USERS\MAGSHIMIM\SOURCE\REPOS\TRIVIA\TRIVIA\DEBUG\SIGNUPRESPONSE.OBJ
C:\USERS\MAGSHIMIM\SOURCE\REPOS\TRIVIA\TRIVIA\DEBUG\LOGOUTRESPONSE.OBJ
C:\USERS\MAGSHIMIM\SOURCE\REPOS\TRIVIA\TRIVIA\DEBUG\LOGINRESPONSE.OBJ
C:\USERS\MAGSHIMIM\SOURCE\REPOS\TRIVIA\TRIVIA\DEBUG\JOINROOMRESPONSE.OBJ
C:\USERS\MAGSHIMIM\SOURCE\REPOS\TRIVIA\TRIVIA\DEBUG\IRESPONSE.OBJ
C:\USERS\MAGSHIMIM\SOURCE\REPOS\TRIVIA\TRIVIA\DEBUG\HIGHSCORERESPONSE.OBJ
C:\USERS\MAGSHIMIM\SOURCE\REPOS\TRIVIA\TRIVIA\DEBUG\GETROOMSRESPONSE.OBJ
C:\USERS\MAGSHIMIM\SOURCE\REPOS\TRIVIA\TRIVIA\DEBUG\GETPLAYERSINROOMRESPONSE.OBJ
C:\USERS\MAGSHIMIM\SOURCE\REPOS\TRIVIA\TRIVIA\DEBUG\ERRORRESPONSE.OBJ
C:\USERS\MAGSHIMIM\SOURCE\REPOS\TRIVIA\TRIVIA\DEBUG\CREATEROOMRESPONSE.OBJ
C:\USERS\MAGSHIMIM\SOURCE\REPOS\TRIVIA\TRIVIA\DEBUG\SIGNUPREQUEST.OBJ
C:\USERS\MAGSHIMIM\SOURCE\REPOS\TRIVIA\TRIVIA\DEBUG\LOGINREQUEST.OBJ
C:\USERS\MAGSHIMIM\SOURCE\REPOS\TRIVIA\TRIVIA\DEBUG\JOINROOMREQUEST.OBJ
C:\USERS\MAGSHIMIM\SOURCE\REPOS\TRIVIA\TRIVIA\DEBUG\IREQUEST.OBJ
C:\USERS\MAGSHIMIM\SOURCE\REPOS\TRIVIA\TRIVIA\DEBUG\GETPLAYERSINROOMREQUEST.OBJ
C:\USERS\MAGSHIMIM\SOURCE\REPOS\TRIVIA\TRIVIA\DEBUG\CREATEROOMREQUEST.OBJ
^C:\USERS\MAGSHIMIM\SOURCE\REPOS\TRIVIA\TRIVIA\BUFFER.CPP
C:\USERS\MAGSHIMIM\SOURCE\REPOS\TRIVIA\TRIVIA\DEBUG\VC141.PDB
^C:\USERS\MAGSHIMIM\SOURCE\REPOS\TRIVIA\TRIVIA\HANDLERS\REQUEST.CPP
C:\USERS\MAGSHIMIM\SOURCE\REPOS\TRIVIA\TRIVIA\DEBUG\VC141.PDB
^C:\USERS\MAGSHIMIM\SOURCE\REPOS\TRIVIA\TRIVIA\HANDLERS\REQUESTRESULT.CPP
C:\USERS\MAGSHIMIM\SOURCE\REPOS\TRIVIA\TRIVIA\DEBUG\VC141.PDB
^C:\USERS\MAGSHIMIM\SOURCE\REPOS\TRIVIA\TRIVIA\IDATABASE.CPP
C:\USERS\MAGSHIMIM\SOURCE\REPOS\TRIVIA\TRIVIA\DEBUG\VC141.PDB
^C:\USERS\MAGSHIMIM\SOURCE\REPOS\TRIVIA\TRIVIA\MANAGERS\HIGHSCORETABLE.CPP
C:\USERS\MAGSHIMIM\SOURCE\REPOS\TRIVIA\TRIVIA\DEBUG\VC141.PDB
^C:\USERS\MAGSHIMIM\SOURCE\REPOS\TRIVIA\TRIVIA\REQUESTS\CREATEROOMREQUEST.CPP
C:\USERS\MAGSHIMIM\SOURCE\REPOS\TRIVIA\TRIVIA\DEBUG\VC141.PDB
^C:\USERS\MAGSHIMIM\SOURCE\REPOS\TRIVIA\TRIVIA\REQUESTS\GETPLAYERSINROOMREQUEST.CPP
C:\USERS\MAGSHIMIM\SOURCE\REPOS\TRIVIA\TRIVIA\DEBUG\VC141.PDB
^C:\USERS\MAGSHIMIM\SOURCE\REPOS\TRIVIA\TRIVIA\REQUESTS\IREQUEST.CPP
C:\USERS\MAGSHIMIM\SOURCE\REPOS\TRIVIA\TRIVIA\DEBUG\VC141.PDB
^C:\USERS\MAGSHIMIM\SOURCE\REPOS\TRIVIA\TRIVIA\REQUESTS\JOINROOMREQUEST.CPP
C:\USERS\MAGSHIMIM\SOURCE\REPOS\TRIVIA\TRIVIA\DEBUG\VC141.PDB
^C:\USERS\MAGSHIMIM\SOURCE\REPOS\TRIVIA\TRIVIA\REQUESTS\LOGINREQUEST.CPP
C:\USERS\MAGSHIMIM\SOURCE\REPOS\TRIVIA\TRIVIA\DEBUG\VC141.PDB
^C:\USERS\MAGSHIMIM\SOURCE\REPOS\TRIVIA\TRIVIA\REQUESTS\SIGNUPREQUEST.CPP
C:\USERS\MAGSHIMIM\SOURCE\REPOS\TRIVIA\TRIVIA\DEBUG\VC141.PDB
^C:\USERS\MAGSHIMIM\SOURCE\REPOS\TRIVIA\TRIVIA\RESPONSES\ERRORRESPONSE.CPP
C:\USERS\MAGSHIMIM\SOURCE\REPOS\TRIVIA\TRIVIA\DEBUG\VC141.PDB
^C:\USERS\MAGSHIMIM\SOURCE\REPOS\TRIVIA\TRIVIA\RESPONSES\GETPLAYERSINROOMRESPONSE.CPP
C:\USERS\MAGSHIMIM\SOURCE\REPOS\TRIVIA\TRIVIA\DEBUG\VC141.PDB
^C:\USERS\MAGSHIMIM\SOURCE\REPOS\TRIVIA\TRIVIA\RESPONSES\HIGHSCORERESPONSE.CPP
C:\USERS\MAGSHIMIM\SOURCE\REPOS\TRIVIA\TRIVIA\DEBUG\VC141.PDB
^C:\USERS\MAGSHIMIM\SOURCE\REPOS\TRIVIA\TRIVIA\RESPONSES\IRESPONSE.CPP
C:\USERS\MAGSHIMIM\SOURCE\REPOS\TRIVIA\TRIVIA\DEBUG\VC141.PDB
^C:\USERS\MAGSHIMIM\SOURCE\REPOS\TRIVIA\TRIVIA\RESPONSES\JOINROOMRESPONSE.CPP
C:\USERS\MAGSHIMIM\SOURCE\REPOS\TRIVIA\TRIVIA\DEBUG\VC141.PDB
^C:\USERS\MAGSHIMIM\SOURCE\REPOS\TRIVIA\TRIVIA\RESPONSES\LOGINRESPONSE.CPP
C:\USERS\MAGSHIMIM\SOURCE\REPOS\TRIVIA\TRIVIA\DEBUG\VC141.PDB
^C:\USERS\MAGSHIMIM\SOURCE\REPOS\TRIVIA\TRIVIA\RESPONSES\LOGOUTRESPONSE.CPP
C:\USERS\MAGSHIMIM\SOURCE\REPOS\TRIVIA\TRIVIA\DEBUG\VC141.PDB
^C:\USERS\MAGSHIMIM\SOURCE\REPOS\TRIVIA\TRIVIA\RESPONSES\SIGNUPRESPONSE.CPP
C:\USERS\MAGSHIMIM\SOURCE\REPOS\TRIVIA\TRIVIA\DEBUG\VC141.PDB
^C:\USERS\MAGSHIMIM\SOURCE\REPOS\TRIVIA\TRIVIA\SQLITEDATABASE.CPP
C:\USERS\MAGSHIMIM\SOURCE\REPOS\TRIVIA\TRIVIA\DEBUG\VC141.PDB
^C:\USERS\MAGSHIMIM\SOURCE\REPOS\TRIVIA\TRIVIA\WSAINITIALIZER.CPP
C:\USERS\MAGSHIMIM\SOURCE\REPOS\TRIVIA\TRIVIA\DEBUG\VC141.PDB
^C:\USERS\MAGSHIMIM\SOURCE\REPOS\TRIVIA\TRIVIA\SQLITE3.C
C:\USERS\MAGSHIMIM\SOURCE\REPOS\TRIVIA\TRIVIA\DEBUG\VC141.PDB
C:\USERS\MAGSHIMIM\SOURCE\REPOS\TRIVIA\TRIVIA\DEBUG\VC141.IDB
C:\USERS\MAGSHIMIM\SOURCE\REPOS\TRIVIA\TRIVIA\DEBUG\SQLITE3.OBJ
^C:\USERS\MAGSHIMIM\SOURCE\REPOS\TRIVIA\TRIVIA\COMMUNICATOR.CPP|C:\USERS\MAGSHIMIM\SOURCE\REPOS\TRIVIA\TRIVIA\HANDLERS\LOGINREQUESTHANDLER.CPP|C:\USERS\MAGSHIMIM\SOURCE\REPOS\TRIVIA\TRIVIA\HANDLERS\MENUREQUESTHANDLER.CPP|C:\USERS\MAGSHIMIM\SOURCE\REPOS\TRIVIA\TRIVIA\MAIN.CPP|C:\USERS\MAGSHIMIM\SOURCE\REPOS\TRIVIA\TRIVIA\REQUESTHANDLERFACTORY.CPP|C:\USERS\MAGSHIMIM\SOURCE\REPOS\TRIVIA\TRIVIA\SERVER.CPP
C:\USERS\MAGSHIMIM\SOURCE\REPOS\TRIVIA\TRIVIA\DEBUG\VC141.PDB
C:\USERS\MAGSHIMIM\SOURCE\REPOS\TRIVIA\TRIVIA\DEBUG\VC141.IDB
C:\USERS\MAGSHIMIM\SOURCE\REPOS\TRIVIA\TRIVIA\DEBUG\MAIN.OBJ
C:\USERS\MAGSHIMIM\SOURCE\REPOS\TRIVIA\TRIVIA\DEBUG\SERVER.OBJ
C:\USERS\MAGSHIMIM\SOURCE\REPOS\TRIVIA\TRIVIA\DEBUG\MENUREQUESTHANDLER.OBJ
C:\USERS\MAGSHIMIM\SOURCE\REPOS\TRIVIA\TRIVIA\DEBUG\LOGINREQUESTHANDLER.OBJ
C:\USERS\MAGSHIMIM\SOURCE\REPOS\TRIVIA\TRIVIA\DEBUG\COMMUNICATOR.OBJ
^C:\USERS\MAGSHIMIM\SOURCE\REPOS\TRIVIA\TRIVIA\COMMUNICATOR.CPP|C:\USERS\MAGSHIMIM\SOURCE\REPOS\TRIVIA\TRIVIA\HANDLERS\LOGINREQUESTHANDLER.CPP|C:\USERS\MAGSHIMIM\SOURCE\REPOS\TRIVIA\TRIVIA\HANDLERS\MENUREQUESTHANDLER.CPP|C:\USERS\MAGSHIMIM\SOURCE\REPOS\TRIVIA\TRIVIA\MAIN.CPP|C:\USERS\MAGSHIMIM\SOURCE\REPOS\TRIVIA\TRIVIA\MANAGERS\LOGGEDUSER.CPP|C:\USERS\MAGSHIMIM\SOURCE\REPOS\TRIVIA\TRIVIA\MANAGERS\LOGINMANAGER.CPP|C:\USERS\MAGSHIMIM\SOURCE\REPOS\TRIVIA\TRIVIA\MANAGERS\ROOM.CPP|C:\USERS\MAGSHIMIM\SOURCE\REPOS\TRIVIA\TRIVIA\MANAGERS\ROOMMANAGER.CPP|C:\USERS\MAGSHIMIM\SOURCE\REPOS\TRIVIA\TRIVIA\REQUESTHANDLERFACTORY.CPP|C:\USERS\MAGSHIMIM\SOURCE\REPOS\TRIVIA\TRIVIA\SERVER.CPP
C:\USERS\MAGSHIMIM\SOURCE\REPOS\TRIVIA\TRIVIA\DEBUG\VC141.PDB
C:\USERS\MAGSHIMIM\SOURCE\REPOS\TRIVIA\TRIVIA\DEBUG\VC141.IDB
C:\USERS\MAGSHIMIM\SOURCE\REPOS\TRIVIA\TRIVIA\DEBUG\MAIN.OBJ
C:\USERS\MAGSHIMIM\SOURCE\REPOS\TRIVIA\TRIVIA\DEBUG\SERVER.OBJ
C:\USERS\MAGSHIMIM\SOURCE\REPOS\TRIVIA\TRIVIA\DEBUG\REQUESTHANDLERFACTORY.OBJ
C:\USERS\MAGSHIMIM\SOURCE\REPOS\TRIVIA\TRIVIA\DEBUG\ROOMMANAGER.OBJ
C:\USERS\MAGSHIMIM\SOURCE\REPOS\TRIVIA\TRIVIA\DEBUG\ROOM.OBJ
C:\USERS\MAGSHIMIM\SOURCE\REPOS\TRIVIA\TRIVIA\DEBUG\LOGINMANAGER.OBJ
C:\USERS\MAGSHIMIM\SOURCE\REPOS\TRIVIA\TRIVIA\DEBUG\LOGGEDUSER.OBJ
C:\USERS\MAGSHIMIM\SOURCE\REPOS\TRIVIA\TRIVIA\DEBUG\MENUREQUESTHANDLER.OBJ
C:\USERS\MAGSHIMIM\SOURCE\REPOS\TRIVIA\TRIVIA\DEBUG\LOGINREQUESTHANDLER.OBJ
C:\USERS\MAGSHIMIM\SOURCE\REPOS\TRIVIA\TRIVIA\DEBUG\COMMUNICATOR.OBJ
^C:\USERS\MAGSHIMIM\SOURCE\REPOS\TRIVIA\TRIVIA\MANAGERS\LOGGEDUSER.CPP
C:\USERS\MAGSHIMIM\SOURCE\REPOS\TRIVIA\TRIVIA\DEBUG\VC141.PDB
^C:\USERS\MAGSHIMIM\SOURCE\REPOS\TRIVIA\TRIVIA\COMMUNICATOR.CPP|C:\USERS\MAGSHIMIM\SOURCE\REPOS\TRIVIA\TRIVIA\HANDLERS\MENUREQUESTHANDLER.CPP|C:\USERS\MAGSHIMIM\SOURCE\REPOS\TRIVIA\TRIVIA\MAIN.CPP|C:\USERS\MAGSHIMIM\SOURCE\REPOS\TRIVIA\TRIVIA\REQUESTHANDLERFACTORY.CPP|C:\USERS\MAGSHIMIM\SOURCE\REPOS\TRIVIA\TRIVIA\SERVER.CPP
C:\USERS\MAGSHIMIM\SOURCE\REPOS\TRIVIA\TRIVIA\DEBUG\VC141.PDB
C:\USERS\MAGSHIMIM\SOURCE\REPOS\TRIVIA\TRIVIA\DEBUG\VC141.IDB
C:\USERS\MAGSHIMIM\SOURCE\REPOS\TRIVIA\TRIVIA\DEBUG\MAIN.OBJ
C:\USERS\MAGSHIMIM\SOURCE\REPOS\TRIVIA\TRIVIA\DEBUG\SERVER.OBJ
C:\USERS\MAGSHIMIM\SOURCE\REPOS\TRIVIA\TRIVIA\DEBUG\MENUREQUESTHANDLER.OBJ
C:\USERS\MAGSHIMIM\SOURCE\REPOS\TRIVIA\TRIVIA\DEBUG\COMMUNICATOR.OBJ
^C:\USERS\MAGSHIMIM\SOURCE\REPOS\TRIVIA\TRIVIA\COMMUNICATOR.CPP|C:\USERS\MAGSHIMIM\SOURCE\REPOS\TRIVIA\TRIVIA\HANDLERS\IREQUESTHANDLER.CPP|C:\USERS\MAGSHIMIM\SOURCE\REPOS\TRIVIA\TRIVIA\HANDLERS\LOGINREQUESTHANDLER.CPP|C:\USERS\MAGSHIMIM\SOURCE\REPOS\TRIVIA\TRIVIA\HANDLERS\MENUREQUESTHANDLER.CPP|C:\USERS\MAGSHIMIM\SOURCE\REPOS\TRIVIA\TRIVIA\MAIN.CPP|C:\USERS\MAGSHIMIM\SOURCE\REPOS\TRIVIA\TRIVIA\REQUESTHANDLERFACTORY.CPP|C:\USERS\MAGSHIMIM\SOURCE\REPOS\TRIVIA\TRIVIA\SERVER.CPP
C:\USERS\MAGSHIMIM\SOURCE\REPOS\TRIVIA\TRIVIA\DEBUG\VC141.PDB
C:\USERS\MAGSHIMIM\SOURCE\REPOS\TRIVIA\TRIVIA\DEBUG\VC141.IDB
C:\USERS\MAGSHIMIM\SOURCE\REPOS\TRIVIA\TRIVIA\DEBUG\SERVER.OBJ
C:\USERS\MAGSHIMIM\SOURCE\REPOS\TRIVIA\TRIVIA\DEBUG\REQUESTHANDLERFACTORY.OBJ
C:\USERS\MAGSHIMIM\SOURCE\REPOS\TRIVIA\TRIVIA\DEBUG\MAIN.OBJ
C:\USERS\MAGSHIMIM\SOURCE\REPOS\TRIVIA\TRIVIA\DEBUG\MENUREQUESTHANDLER.OBJ
C:\USERS\MAGSHIMIM\SOURCE\REPOS\TRIVIA\TRIVIA\DEBUG\LOGINREQUESTHANDLER.OBJ
C:\USERS\MAGSHIMIM\SOURCE\REPOS\TRIVIA\TRIVIA\DEBUG\IREQUESTHANDLER.OBJ
C:\USERS\MAGSHIMIM\SOURCE\REPOS\TRIVIA\TRIVIA\DEBUG\COMMUNICATOR.OBJ
^C:\USERS\MAGSHIMIM\SOURCE\REPOS\TRIVIA\TRIVIA\HANDLERS\IREQUESTHANDLER.CPP
C:\USERS\MAGSHIMIM\SOURCE\REPOS\TRIVIA\TRIVIA\DEBUG\VC141.PDB
^C:\USERS\MAGSHIMIM\SOURCE\REPOS\TRIVIA\TRIVIA\COMMUNICATOR.CPP|C:\USERS\MAGSHIMIM\SOURCE\REPOS\TRIVIA\TRIVIA\HANDLERS\LOGINREQUESTHANDLER.CPP|C:\USERS\MAGSHIMIM\SOURCE\REPOS\TRIVIA\TRIVIA\HANDLERS\MENUREQUESTHANDLER.CPP|C:\USERS\MAGSHIMIM\SOURCE\REPOS\TRIVIA\TRIVIA\HELPER.CPP|C:\USERS\MAGSHIMIM\SOURCE\REPOS\TRIVIA\TRIVIA\MAIN.CPP|C:\USERS\MAGSHIMIM\SOURCE\REPOS\TRIVIA\TRIVIA\MANAGERS\LOGINMANAGER.CPP|C:\USERS\MAGSHIMIM\SOURCE\REPOS\TRIVIA\TRIVIA\MANAGERS\ROOM.CPP|C:\USERS\MAGSHIMIM\SOURCE\REPOS\TRIVIA\TRIVIA\MANAGERS\ROOMMANAGER.CPP|C:\USERS\MAGSHIMIM\SOURCE\REPOS\TRIVIA\TRIVIA\REQUESTHANDLERFACTORY.CPP|C:\USERS\MAGSHIMIM\SOURCE\REPOS\TRIVIA\TRIVIA\SERVER.CPP
C:\USERS\MAGSHIMIM\SOURCE\REPOS\TRIVIA\TRIVIA\DEBUG\VC141.PDB
C:\USERS\MAGSHIMIM\SOURCE\REPOS\TRIVIA\TRIVIA\DEBUG\VC141.IDB
C:\USERS\MAGSHIMIM\SOURCE\REPOS\TRIVIA\TRIVIA\DEBUG\MAIN.OBJ
C:\USERS\MAGSHIMIM\SOURCE\REPOS\TRIVIA\TRIVIA\DEBUG\SERVER.OBJ
C:\USERS\MAGSHIMIM\SOURCE\REPOS\TRIVIA\TRIVIA\DEBUG\REQUESTHANDLERFACTORY.OBJ
C:\USERS\MAGSHIMIM\SOURCE\REPOS\TRIVIA\TRIVIA\DEBUG\ROOMMANAGER.OBJ
C:\USERS\MAGSHIMIM\SOURCE\REPOS\TRIVIA\TRIVIA\DEBUG\ROOM.OBJ
C:\USERS\MAGSHIMIM\SOURCE\REPOS\TRIVIA\TRIVIA\DEBUG\LOGINMANAGER.OBJ
C:\USERS\MAGSHIMIM\SOURCE\REPOS\TRIVIA\TRIVIA\DEBUG\HELPER.OBJ
C:\USERS\MAGSHIMIM\SOURCE\REPOS\TRIVIA\TRIVIA\DEBUG\MENUREQUESTHANDLER.OBJ
C:\USERS\MAGSHIMIM\SOURCE\REPOS\TRIVIA\TRIVIA\DEBUG\LOGINREQUESTHANDLER.OBJ
C:\USERS\MAGSHIMIM\SOURCE\REPOS\TRIVIA\TRIVIA\DEBUG\COMMUNICATOR.OBJ
^C:\USERS\MAGSHIMIM\SOURCE\REPOS\TRIVIA\TRIVIA\COMMUNICATOR.CPP|C:\USERS\MAGSHIMIM\SOURCE\REPOS\TRIVIA\TRIVIA\HANDLERS\LOGINREQUESTHANDLER.CPP|C:\USERS\MAGSHIMIM\SOURCE\REPOS\TRIVIA\TRIVIA\HANDLERS\MENUREQUESTHANDLER.CPP|C:\USERS\MAGSHIMIM\SOURCE\REPOS\TRIVIA\TRIVIA\HELPER.CPP|C:\USERS\MAGSHIMIM\SOURCE\REPOS\TRIVIA\TRIVIA\JSONRESPONSEPACKETSERIALIZER.CPP|C:\USERS\MAGSHIMIM\SOURCE\REPOS\TRIVIA\TRIVIA\MAIN.CPP|C:\USERS\MAGSHIMIM\SOURCE\REPOS\TRIVIA\TRIVIA\MANAGERS\LOGINMANAGER.CPP|C:\USERS\MAGSHIMIM\SOURCE\REPOS\TRIVIA\TRIVIA\MANAGERS\ROOMMANAGER.CPP|C:\USERS\MAGSHIMIM\SOURCE\REPOS\TRIVIA\TRIVIA\REQUESTHANDLERFACTORY.CPP|C:\USERS\MAGSHIMIM\SOURCE\REPOS\TRIVIA\TRIVIA\SERVER.CPP
C:\USERS\MAGSHIMIM\SOURCE\REPOS\TRIVIA\TRIVIA\DEBUG\VC141.PDB
C:\USERS\MAGSHIMIM\SOURCE\REPOS\TRIVIA\TRIVIA\DEBUG\VC141.IDB
C:\USERS\MAGSHIMIM\SOURCE\REPOS\TRIVIA\TRIVIA\DEBUG\MAIN.OBJ
C:\USERS\MAGSHIMIM\SOURCE\REPOS\TRIVIA\TRIVIA\DEBUG\SERVER.OBJ
C:\USERS\MAGSHIMIM\SOURCE\REPOS\TRIVIA\TRIVIA\DEBUG\REQUESTHANDLERFACTORY.OBJ
C:\USERS\MAGSHIMIM\SOURCE\REPOS\TRIVIA\TRIVIA\DEBUG\ROOMMANAGER.OBJ
C:\USERS\MAGSHIMIM\SOURCE\REPOS\TRIVIA\TRIVIA\DEBUG\LOGINMANAGER.OBJ
C:\USERS\MAGSHIMIM\SOURCE\REPOS\TRIVIA\TRIVIA\DEBUG\JSONRESPONSEPACKETSERIALIZER.OBJ
C:\USERS\MAGSHIMIM\SOURCE\REPOS\TRIVIA\TRIVIA\DEBUG\HELPER.OBJ
C:\USERS\MAGSHIMIM\SOURCE\REPOS\TRIVIA\TRIVIA\DEBUG\MENUREQUESTHANDLER.OBJ
C:\USERS\MAGSHIMIM\SOURCE\REPOS\TRIVIA\TRIVIA\DEBUG\LOGINREQUESTHANDLER.OBJ
C:\USERS\MAGSHIMIM\SOURCE\REPOS\TRIVIA\TRIVIA\DEBUG\COMMUNICATOR.OBJ
^C:\USERS\MAGSHIMIM\SOURCE\REPOS\TRIVIA\TRIVIA\HANDLERS\MENUREQUESTHANDLER.CPP|C:\USERS\MAGSHIMIM\SOURCE\REPOS\TRIVIA\TRIVIA\JSONRESPONSEPACKETSERIALIZER.CPP|C:\USERS\MAGSHIMIM\SOURCE\REPOS\TRIVIA\TRIVIA\RESPONSES\GETROOMSRESPONSE.CPP
C:\USERS\MAGSHIMIM\SOURCE\REPOS\TRIVIA\TRIVIA\DEBUG\VC141.PDB
C:\USERS\MAGSHIMIM\SOURCE\REPOS\TRIVIA\TRIVIA\DEBUG\VC141.IDB
C:\USERS\MAGSHIMIM\SOURCE\REPOS\TRIVIA\TRIVIA\DEBUG\GETROOMSRESPONSE.OBJ
^C:\USERS\MAGSHIMIM\SOURCE\REPOS\TRIVIA\TRIVIA\COMMUNICATOR.CPP|C:\USERS\MAGSHIMIM\SOURCE\REPOS\TRIVIA\TRIVIA\HANDLERS\LOGINREQUESTHANDLER.CPP|C:\USERS\MAGSHIMIM\SOURCE\REPOS\TRIVIA\TRIVIA\HANDLERS\MENUREQUESTHANDLER.CPP|C:\USERS\MAGSHIMIM\SOURCE\REPOS\TRIVIA\TRIVIA\JSONRESPONSEPACKETSERIALIZER.CPP|C:\USERS\MAGSHIMIM\SOURCE\REPOS\TRIVIA\TRIVIA\MAIN.CPP|C:\USERS\MAGSHIMIM\SOURCE\REPOS\TRIVIA\TRIVIA\MANAGERS\ROOM.CPP|C:\USERS\MAGSHIMIM\SOURCE\REPOS\TRIVIA\TRIVIA\MANAGERS\ROOMMANAGER.CPP|C:\USERS\MAGSHIMIM\SOURCE\REPOS\TRIVIA\TRIVIA\REQUESTHANDLERFACTORY.CPP|C:\USERS\MAGSHIMIM\SOURCE\REPOS\TRIVIA\TRIVIA\RESPONSES\GETROOMSRESPONSE.CPP|C:\USERS\MAGSHIMIM\SOURCE\REPOS\TRIVIA\TRIVIA\SERVER.CPP
C:\USERS\MAGSHIMIM\SOURCE\REPOS\TRIVIA\TRIVIA\DEBUG\VC141.PDB
C:\USERS\MAGSHIMIM\SOURCE\REPOS\TRIVIA\TRIVIA\DEBUG\VC141.IDB
C:\USERS\MAGSHIMIM\SOURCE\REPOS\TRIVIA\TRIVIA\DEBUG\SERVER.OBJ
C:\USERS\MAGSHIMIM\SOURCE\REPOS\TRIVIA\TRIVIA\DEBUG\GETROOMSRESPONSE.OBJ
C:\USERS\MAGSHIMIM\SOURCE\REPOS\TRIVIA\TRIVIA\DEBUG\REQUESTHANDLERFACTORY.OBJ
C:\USERS\MAGSHIMIM\SOURCE\REPOS\TRIVIA\TRIVIA\DEBUG\ROOMMANAGER.OBJ
C:\USERS\MAGSHIMIM\SOURCE\REPOS\TRIVIA\TRIVIA\DEBUG\ROOM.OBJ
C:\USERS\MAGSHIMIM\SOURCE\REPOS\TRIVIA\TRIVIA\DEBUG\MAIN.OBJ
C:\USERS\MAGSHIMIM\SOURCE\REPOS\TRIVIA\TRIVIA\DEBUG\JSONRESPONSEPACKETSERIALIZER.OBJ
C:\USERS\MAGSHIMIM\SOURCE\REPOS\TRIVIA\TRIVIA\DEBUG\MENUREQUESTHANDLER.OBJ
C:\USERS\MAGSHIMIM\SOURCE\REPOS\TRIVIA\TRIVIA\DEBUG\LOGINREQUESTHANDLER.OBJ
C:\USERS\MAGSHIMIM\SOURCE\REPOS\TRIVIA\TRIVIA\DEBUG\COMMUNICATOR.OBJ
^C:\USERS\MAGSHIMIM\SOURCE\REPOS\TRIVIA\TRIVIA\COMMUNICATOR.CPP|C:\USERS\MAGSHIMIM\SOURCE\REPOS\TRIVIA\TRIVIA\HANDLERS\LOGINREQUESTHANDLER.CPP|C:\USERS\MAGSHIMIM\SOURCE\REPOS\TRIVIA\TRIVIA\HANDLERS\MENUREQUESTHANDLER.CPP|C:\USERS\MAGSHIMIM\SOURCE\REPOS\TRIVIA\TRIVIA\JSONRESPONSEPACKETSERIALIZER.CPP|C:\USERS\MAGSHIMIM\SOURCE\REPOS\TRIVIA\TRIVIA\MAIN.CPP|C:\USERS\MAGSHIMIM\SOURCE\REPOS\TRIVIA\TRIVIA\REQUESTHANDLERFACTORY.CPP|C:\USERS\MAGSHIMIM\SOURCE\REPOS\TRIVIA\TRIVIA\RESPONSES\GETROOMSRESPONSE.CPP|C:\USERS\MAGSHIMIM\SOURCE\REPOS\TRIVIA\TRIVIA\SERVER.CPP
C:\USERS\MAGSHIMIM\SOURCE\REPOS\TRIVIA\TRIVIA\DEBUG\VC141.PDB
C:\USERS\MAGSHIMIM\SOURCE\REPOS\TRIVIA\TRIVIA\DEBUG\VC141.IDB
C:\USERS\MAGSHIMIM\SOURCE\REPOS\TRIVIA\TRIVIA\DEBUG\MAIN.OBJ
C:\USERS\MAGSHIMIM\SOURCE\REPOS\TRIVIA\TRIVIA\DEBUG\SERVER.OBJ
C:\USERS\MAGSHIMIM\SOURCE\REPOS\TRIVIA\TRIVIA\DEBUG\GETROOMSRESPONSE.OBJ
C:\USERS\MAGSHIMIM\SOURCE\REPOS\TRIVIA\TRIVIA\DEBUG\REQUESTHANDLERFACTORY.OBJ
C:\USERS\MAGSHIMIM\SOURCE\REPOS\TRIVIA\TRIVIA\DEBUG\JSONRESPONSEPACKETSERIALIZER.OBJ
C:\USERS\MAGSHIMIM\SOURCE\REPOS\TRIVIA\TRIVIA\DEBUG\MENUREQUESTHANDLER.OBJ
C:\USERS\MAGSHIMIM\SOURCE\REPOS\TRIVIA\TRIVIA\DEBUG\LOGINREQUESTHANDLER.OBJ
C:\USERS\MAGSHIMIM\SOURCE\REPOS\TRIVIA\TRIVIA\DEBUG\COMMUNICATOR.OBJ
^C:\USERS\MAGSHIMIM\SOURCE\REPOS\TRIVIA\TRIVIA\COMMUNICATOR.CPP|C:\USERS\MAGSHIMIM\SOURCE\REPOS\TRIVIA\TRIVIA\HANDLERS\LOGINREQUESTHANDLER.CPP|C:\USERS\MAGSHIMIM\SOURCE\REPOS\TRIVIA\TRIVIA\HANDLERS\MENUREQUESTHANDLER.CPP|C:\USERS\MAGSHIMIM\SOURCE\REPOS\TRIVIA\TRIVIA\HELPER.CPP|C:\USERS\MAGSHIMIM\SOURCE\REPOS\TRIVIA\TRIVIA\JSONRESPONSEPACKETSERIALIZER.CPP|C:\USERS\MAGSHIMIM\SOURCE\REPOS\TRIVIA\TRIVIA\MAIN.CPP|C:\USERS\MAGSHIMIM\SOURCE\REPOS\TRIVIA\TRIVIA\REQUESTHANDLERFACTORY.CPP|C:\USERS\MAGSHIMIM\SOURCE\REPOS\TRIVIA\TRIVIA\SERVER.CPP
C:\USERS\MAGSHIMIM\SOURCE\REPOS\TRIVIA\TRIVIA\DEBUG\VC141.PDB
C:\USERS\MAGSHIMIM\SOURCE\REPOS\TRIVIA\TRIVIA\DEBUG\VC141.IDB
C:\USERS\MAGSHIMIM\SOURCE\REPOS\TRIVIA\TRIVIA\DEBUG\MAIN.OBJ
C:\USERS\MAGSHIMIM\SOURCE\REPOS\TRIVIA\TRIVIA\DEBUG\SERVER.OBJ
C:\USERS\MAGSHIMIM\SOURCE\REPOS\TRIVIA\TRIVIA\DEBUG\REQUESTHANDLERFACTORY.OBJ
C:\USERS\MAGSHIMIM\SOURCE\REPOS\TRIVIA\TRIVIA\DEBUG\JSONRESPONSEPACKETSERIALIZER.OBJ
C:\USERS\MAGSHIMIM\SOURCE\REPOS\TRIVIA\TRIVIA\DEBUG\HELPER.OBJ
C:\USERS\MAGSHIMIM\SOURCE\REPOS\TRIVIA\TRIVIA\DEBUG\MENUREQUESTHANDLER.OBJ
C:\USERS\MAGSHIMIM\SOURCE\REPOS\TRIVIA\TRIVIA\DEBUG\LOGINREQUESTHANDLER.OBJ
C:\USERS\MAGSHIMIM\SOURCE\REPOS\TRIVIA\TRIVIA\DEBUG\COMMUNICATOR.OBJ
^C:\USERS\MAGSHIMIM\SOURCE\REPOS\TRIVIA\TRIVIA\COMMUNICATOR.CPP|C:\USERS\MAGSHIMIM\SOURCE\REPOS\TRIVIA\TRIVIA\HANDLERS\LOGINREQUESTHANDLER.CPP|C:\USERS\MAGSHIMIM\SOURCE\REPOS\TRIVIA\TRIVIA\MAIN.CPP|C:\USERS\MAGSHIMIM\SOURCE\REPOS\TRIVIA\TRIVIA\REQUESTHANDLERFACTORY.CPP|C:\USERS\MAGSHIMIM\SOURCE\REPOS\TRIVIA\TRIVIA\SERVER.CPP
C:\USERS\MAGSHIMIM\SOURCE\REPOS\TRIVIA\TRIVIA\DEBUG\VC141.PDB
C:\USERS\MAGSHIMIM\SOURCE\REPOS\TRIVIA\TRIVIA\DEBUG\VC141.IDB
C:\USERS\MAGSHIMIM\SOURCE\REPOS\TRIVIA\TRIVIA\DEBUG\SERVER.OBJ
C:\USERS\MAGSHIMIM\SOURCE\REPOS\TRIVIA\TRIVIA\DEBUG\REQUESTHANDLERFACTORY.OBJ
C:\USERS\MAGSHIMIM\SOURCE\REPOS\TRIVIA\TRIVIA\DEBUG\MAIN.OBJ
C:\USERS\MAGSHIMIM\SOURCE\REPOS\TRIVIA\TRIVIA\DEBUG\LOGINREQUESTHANDLER.OBJ
C:\USERS\MAGSHIMIM\SOURCE\REPOS\TRIVIA\TRIVIA\DEBUG\COMMUNICATOR.OBJ
^C:\USERS\MAGSHIMIM\SOURCE\REPOS\TRIVIA\TRIVIA\COMMUNICATOR.CPP|C:\USERS\MAGSHIMIM\SOURCE\REPOS\TRIVIA\TRIVIA\HANDLERS\LOGINREQUESTHANDLER.CPP|C:\USERS\MAGSHIMIM\SOURCE\REPOS\TRIVIA\TRIVIA\HANDLERS\MENUREQUESTHANDLER.CPP|C:\USERS\MAGSHIMIM\SOURCE\REPOS\TRIVIA\TRIVIA\JSONRESPONSEPACKETSERIALIZER.CPP|C:\USERS\MAGSHIMIM\SOURCE\REPOS\TRIVIA\TRIVIA\MAIN.CPP|C:\USERS\MAGSHIMIM\SOURCE\REPOS\TRIVIA\TRIVIA\REQUESTHANDLERFACTORY.CPP|C:\USERS\MAGSHIMIM\SOURCE\REPOS\TRIVIA\TRIVIA\RESPONSES\CREATEROOMRESPONSE.CPP|C:\USERS\MAGSHIMIM\SOURCE\REPOS\TRIVIA\TRIVIA\SERVER.CPP
C:\USERS\MAGSHIMIM\SOURCE\REPOS\TRIVIA\TRIVIA\DEBUG\VC141.PDB
C:\USERS\MAGSHIMIM\SOURCE\REPOS\TRIVIA\TRIVIA\DEBUG\VC141.IDB
C:\USERS\MAGSHIMIM\SOURCE\REPOS\TRIVIA\TRIVIA\DEBUG\MAIN.OBJ
C:\USERS\MAGSHIMIM\SOURCE\REPOS\TRIVIA\TRIVIA\DEBUG\SERVER.OBJ
C:\USERS\MAGSHIMIM\SOURCE\REPOS\TRIVIA\TRIVIA\DEBUG\CREATEROOMRESPONSE.OBJ
C:\USERS\MAGSHIMIM\SOURCE\REPOS\TRIVIA\TRIVIA\DEBUG\REQUESTHANDLERFACTORY.OBJ
C:\USERS\MAGSHIMIM\SOURCE\REPOS\TRIVIA\TRIVIA\DEBUG\JSONRESPONSEPACKETSERIALIZER.OBJ
C:\USERS\MAGSHIMIM\SOURCE\REPOS\TRIVIA\TRIVIA\DEBUG\MENUREQUESTHANDLER.OBJ
C:\USERS\MAGSHIMIM\SOURCE\REPOS\TRIVIA\TRIVIA\DEBUG\LOGINREQUESTHANDLER.OBJ
C:\USERS\MAGSHIMIM\SOURCE\REPOS\TRIVIA\TRIVIA\DEBUG\COMMUNICATOR.OBJ
^C:\USERS\MAGSHIMIM\SOURCE\REPOS\TRIVIA\TRIVIA\COMMUNICATOR.CPP|C:\USERS\MAGSHIMIM\SOURCE\REPOS\TRIVIA\TRIVIA\HANDLERS\LOGINREQUESTHANDLER.CPP|C:\USERS\MAGSHIMIM\SOURCE\REPOS\TRIVIA\TRIVIA\HANDLERS\MENUREQUESTHANDLER.CPP|C:\USERS\MAGSHIMIM\SOURCE\REPOS\TRIVIA\TRIVIA\JSONRESPONSEPACKETSERIALIZER.CPP|C:\USERS\MAGSHIMIM\SOURCE\REPOS\TRIVIA\TRIVIA\MAIN.CPP|C:\USERS\MAGSHIMIM\SOURCE\REPOS\TRIVIA\TRIVIA\REQUESTHANDLERFACTORY.CPP|C:\USERS\MAGSHIMIM\SOURCE\REPOS\TRIVIA\TRIVIA\RESPONSES\CLOSEROOMRESPONSE.CPP|C:\USERS\MAGSHIMIM\SOURCE\REPOS\TRIVIA\TRIVIA\RESPONSES\STARTGAMERESPONSE.CPP|C:\USERS\MAGSHIMIM\SOURCE\REPOS\TRIVIA\TRIVIA\SERVER.CPP
C:\USERS\MAGSHIMIM\SOURCE\REPOS\TRIVIA\TRIVIA\DEBUG\VC141.PDB
C:\USERS\MAGSHIMIM\SOURCE\REPOS\TRIVIA\TRIVIA\DEBUG\VC141.IDB
C:\USERS\MAGSHIMIM\SOURCE\REPOS\TRIVIA\TRIVIA\DEBUG\SERVER.OBJ
C:\USERS\MAGSHIMIM\SOURCE\REPOS\TRIVIA\TRIVIA\DEBUG\STARTGAMERESPONSE.OBJ
C:\USERS\MAGSHIMIM\SOURCE\REPOS\TRIVIA\TRIVIA\DEBUG\CLOSEROOMRESPONSE.OBJ
C:\USERS\MAGSHIMIM\SOURCE\REPOS\TRIVIA\TRIVIA\DEBUG\REQUESTHANDLERFACTORY.OBJ
C:\USERS\MAGSHIMIM\SOURCE\REPOS\TRIVIA\TRIVIA\DEBUG\MAIN.OBJ
C:\USERS\MAGSHIMIM\SOURCE\REPOS\TRIVIA\TRIVIA\DEBUG\JSONRESPONSEPACKETSERIALIZER.OBJ
C:\USERS\MAGSHIMIM\SOURCE\REPOS\TRIVIA\TRIVIA\DEBUG\MENUREQUESTHANDLER.OBJ
C:\USERS\MAGSHIMIM\SOURCE\REPOS\TRIVIA\TRIVIA\DEBUG\LOGINREQUESTHANDLER.OBJ
C:\USERS\MAGSHIMIM\SOURCE\REPOS\TRIVIA\TRIVIA\DEBUG\COMMUNICATOR.OBJ
^C:\USERS\MAGSHIMIM\SOURCE\REPOS\TRIVIA\TRIVIA\COMMUNICATOR.CPP|C:\USERS\MAGSHIMIM\SOURCE\REPOS\TRIVIA\TRIVIA\HANDLERS\LOGINREQUESTHANDLER.CPP|C:\USERS\MAGSHIMIM\SOURCE\REPOS\TRIVIA\TRIVIA\HANDLERS\MENUREQUESTHANDLER.CPP|C:\USERS\MAGSHIMIM\SOURCE\REPOS\TRIVIA\TRIVIA\JSONRESPONSEPACKETSERIALIZER.CPP|C:\USERS\MAGSHIMIM\SOURCE\REPOS\TRIVIA\TRIVIA\MAIN.CPP|C:\USERS\MAGSHIMIM\SOURCE\REPOS\TRIVIA\TRIVIA\REQUESTHANDLERFACTORY.CPP|C:\USERS\MAGSHIMIM\SOURCE\REPOS\TRIVIA\TRIVIA\RESPONSES\CLOSEROOMRESPONSE.CPP|C:\USERS\MAGSHIMIM\SOURCE\REPOS\TRIVIA\TRIVIA\RESPONSES\GETROOMSTATERESPONSE.CPP|C:\USERS\MAGSHIMIM\SOURCE\REPOS\TRIVIA\TRIVIA\RESPONSES\STARTGAMERESPONSE.CPP|C:\USERS\MAGSHIMIM\SOURCE\REPOS\TRIVIA\TRIVIA\SERVER.CPP
C:\USERS\MAGSHIMIM\SOURCE\REPOS\TRIVIA\TRIVIA\DEBUG\VC141.PDB
C:\USERS\MAGSHIMIM\SOURCE\REPOS\TRIVIA\TRIVIA\DEBUG\VC141.IDB
C:\USERS\MAGSHIMIM\SOURCE\REPOS\TRIVIA\TRIVIA\DEBUG\SERVER.OBJ
C:\USERS\MAGSHIMIM\SOURCE\REPOS\TRIVIA\TRIVIA\DEBUG\STARTGAMERESPONSE.OBJ
C:\USERS\MAGSHIMIM\SOURCE\REPOS\TRIVIA\TRIVIA\DEBUG\GETROOMSTATERESPONSE.OBJ
C:\USERS\MAGSHIMIM\SOURCE\REPOS\TRIVIA\TRIVIA\DEBUG\CLOSEROOMRESPONSE.OBJ
C:\USERS\MAGSHIMIM\SOURCE\REPOS\TRIVIA\TRIVIA\DEBUG\REQUESTHANDLERFACTORY.OBJ
C:\USERS\MAGSHIMIM\SOURCE\REPOS\TRIVIA\TRIVIA\DEBUG\MAIN.OBJ
C:\USERS\MAGSHIMIM\SOURCE\REPOS\TRIVIA\TRIVIA\DEBUG\JSONRESPONSEPACKETSERIALIZER.OBJ
C:\USERS\MAGSHIMIM\SOURCE\REPOS\TRIVIA\TRIVIA\DEBUG\MENUREQUESTHANDLER.OBJ
C:\USERS\MAGSHIMIM\SOURCE\REPOS\TRIVIA\TRIVIA\DEBUG\LOGINREQUESTHANDLER.OBJ
C:\USERS\MAGSHIMIM\SOURCE\REPOS\TRIVIA\TRIVIA\DEBUG\COMMUNICATOR.OBJ
^C:\USERS\MAGSHIMIM\SOURCE\REPOS\TRIVIA\TRIVIA\COMMUNICATOR.CPP|C:\USERS\MAGSHIMIM\SOURCE\REPOS\TRIVIA\TRIVIA\HANDLERS\LOGINREQUESTHANDLER.CPP|C:\USERS\MAGSHIMIM\SOURCE\REPOS\TRIVIA\TRIVIA\HANDLERS\MENUREQUESTHANDLER.CPP|C:\USERS\MAGSHIMIM\SOURCE\REPOS\TRIVIA\TRIVIA\JSONRESPONSEPACKETSERIALIZER.CPP|C:\USERS\MAGSHIMIM\SOURCE\REPOS\TRIVIA\TRIVIA\MAIN.CPP|C:\USERS\MAGSHIMIM\SOURCE\REPOS\TRIVIA\TRIVIA\REQUESTHANDLERFACTORY.CPP|C:\USERS\MAGSHIMIM\SOURCE\REPOS\TRIVIA\TRIVIA\RESPONSES\LEAVEROOMRESPONSE.CPP|C:\USERS\MAGSHIMIM\SOURCE\REPOS\TRIVIA\TRIVIA\SERVER.CPP
C:\USERS\MAGSHIMIM\SOURCE\REPOS\TRIVIA\TRIVIA\DEBUG\VC141.PDB
C:\USERS\MAGSHIMIM\SOURCE\REPOS\TRIVIA\TRIVIA\DEBUG\VC141.IDB
C:\USERS\MAGSHIMIM\SOURCE\REPOS\TRIVIA\TRIVIA\DEBUG\SERVER.OBJ
C:\USERS\MAGSHIMIM\SOURCE\REPOS\TRIVIA\TRIVIA\DEBUG\LEAVEROOMRESPONSE.OBJ
C:\USERS\MAGSHIMIM\SOURCE\REPOS\TRIVIA\TRIVIA\DEBUG\REQUESTHANDLERFACTORY.OBJ
C:\USERS\MAGSHIMIM\SOURCE\REPOS\TRIVIA\TRIVIA\DEBUG\MAIN.OBJ
C:\USERS\MAGSHIMIM\SOURCE\REPOS\TRIVIA\TRIVIA\DEBUG\JSONRESPONSEPACKETSERIALIZER.OBJ
C:\USERS\MAGSHIMIM\SOURCE\REPOS\TRIVIA\TRIVIA\DEBUG\MENUREQUESTHANDLER.OBJ
C:\USERS\MAGSHIMIM\SOURCE\REPOS\TRIVIA\TRIVIA\DEBUG\LOGINREQUESTHANDLER.OBJ
C:\USERS\MAGSHIMIM\SOURCE\REPOS\TRIVIA\TRIVIA\DEBUG\COMMUNICATOR.OBJ
^C:\USERS\MAGSHIMIM\SOURCE\REPOS\TRIVIA\TRIVIA\RESPONSES\LEAVEROOMRESPONSE.CPP
C:\USERS\MAGSHIMIM\SOURCE\REPOS\TRIVIA\TRIVIA\DEBUG\VC141.PDB
^C:\USERS\MAGSHIMIM\SOURCE\REPOS\TRIVIA\TRIVIA\COMMUNICATOR.CPP|C:\USERS\MAGSHIMIM\SOURCE\REPOS\TRIVIA\TRIVIA\HANDLERS\LOGINREQUESTHANDLER.CPP|C:\USERS\MAGSHIMIM\SOURCE\REPOS\TRIVIA\TRIVIA\HANDLERS\MENUREQUESTHANDLER.CPP|C:\USERS\MAGSHIMIM\SOURCE\REPOS\TRIVIA\TRIVIA\JSONRESPONSEPACKETSERIALIZER.CPP|C:\USERS\MAGSHIMIM\SOURCE\REPOS\TRIVIA\TRIVIA\MAIN.CPP|C:\USERS\MAGSHIMIM\SOURCE\REPOS\TRIVIA\TRIVIA\REQUESTHANDLERFACTORY.CPP|C:\USERS\MAGSHIMIM\SOURCE\REPOS\TRIVIA\TRIVIA\RESPONSES\ALLPLAYERSREADYRESPONSE.CPP|C:\USERS\MAGSHIMIM\SOURCE\REPOS\TRIVIA\TRIVIA\SERVER.CPP
C:\USERS\MAGSHIMIM\SOURCE\REPOS\TRIVIA\TRIVIA\DEBUG\VC141.PDB
C:\USERS\MAGSHIMIM\SOURCE\REPOS\TRIVIA\TRIVIA\DEBUG\VC141.IDB
C:\USERS\MAGSHIMIM\SOURCE\REPOS\TRIVIA\TRIVIA\DEBUG\SERVER.OBJ
C:\USERS\MAGSHIMIM\SOURCE\REPOS\TRIVIA\TRIVIA\DEBUG\ALLPLAYERSREADYRESPONSE.OBJ
C:\USERS\MAGSHIMIM\SOURCE\REPOS\TRIVIA\TRIVIA\DEBUG\REQUESTHANDLERFACTORY.OBJ
C:\USERS\MAGSHIMIM\SOURCE\REPOS\TRIVIA\TRIVIA\DEBUG\MAIN.OBJ
C:\USERS\MAGSHIMIM\SOURCE\REPOS\TRIVIA\TRIVIA\DEBUG\JSONRESPONSEPACKETSERIALIZER.OBJ
C:\USERS\MAGSHIMIM\SOURCE\REPOS\TRIVIA\TRIVIA\DEBUG\MENUREQUESTHANDLER.OBJ
C:\USERS\MAGSHIMIM\SOURCE\REPOS\TRIVIA\TRIVIA\DEBUG\LOGINREQUESTHANDLER.OBJ
C:\USERS\MAGSHIMIM\SOURCE\REPOS\TRIVIA\TRIVIA\DEBUG\COMMUNICATOR.OBJ
^C:\USERS\MAGSHIMIM\SOURCE\REPOS\TRIVIA\TRIVIA\COMMUNICATOR.CPP|C:\USERS\MAGSHIMIM\SOURCE\REPOS\TRIVIA\TRIVIA\HANDLERS\LOGINREQUESTHANDLER.CPP|C:\USERS\MAGSHIMIM\SOURCE\REPOS\TRIVIA\TRIVIA\HANDLERS\MENUREQUESTHANDLER.CPP|C:\USERS\MAGSHIMIM\SOURCE\REPOS\TRIVIA\TRIVIA\HELPER.CPP|C:\USERS\MAGSHIMIM\SOURCE\REPOS\TRIVIA\TRIVIA\JSONRESPONSEPACKETSERIALIZER.CPP|C:\USERS\MAGSHIMIM\SOURCE\REPOS\TRIVIA\TRIVIA\MAIN.CPP|C:\USERS\MAGSHIMIM\SOURCE\REPOS\TRIVIA\TRIVIA\MANAGERS\LOGINMANAGER.CPP|C:\USERS\MAGSHIMIM\SOURCE\REPOS\TRIVIA\TRIVIA\MANAGERS\ROOMMANAGER.CPP|C:\USERS\MAGSHIMIM\SOURCE\REPOS\TRIVIA\TRIVIA\REQUESTHANDLERFACTORY.CPP|C:\USERS\MAGSHIMIM\SOURCE\REPOS\TRIVIA\TRIVIA\RESPONSES\CLOSEROOMRESPONSE.CPP|C:\USERS\MAGSHIMIM\SOURCE\REPOS\TRIVIA\TRIVIA\RESPONSES\CREATEROOMRESPONSE.CPP|C:\USERS\MAGSHIMIM\SOURCE\REPOS\TRIVIA\TRIVIA\RESPONSES\GETROOMSTATERESPONSE.CPP|C:\USERS\MAGSHIMIM\SOURCE\REPOS\TRIVIA\TRIVIA\RESPONSES\STARTGAMERESPONSE.CPP|C:\USERS\MAGSHIMIM\SOURCE\REPOS\TRIVIA\TRIVIA\SERVER.CPP
C:\USERS\MAGSHIMIM\SOURCE\REPOS\TRIVIA\TRIVIA\DEBUG\VC141.PDB
C:\USERS\MAGSHIMIM\SOURCE\REPOS\TRIVIA\TRIVIA\DEBUG\VC141.IDB
C:\USERS\MAGSHIMIM\SOURCE\REPOS\TRIVIA\TRIVIA\DEBUG\MAIN.OBJ
C:\USERS\MAGSHIMIM\SOURCE\REPOS\TRIVIA\TRIVIA\DEBUG\SERVER.OBJ
C:\USERS\MAGSHIMIM\SOURCE\REPOS\TRIVIA\TRIVIA\DEBUG\STARTGAMERESPONSE.OBJ
C:\USERS\MAGSHIMIM\SOURCE\REPOS\TRIVIA\TRIVIA\DEBUG\GETROOMSTATERESPONSE.OBJ
C:\USERS\MAGSHIMIM\SOURCE\REPOS\TRIVIA\TRIVIA\DEBUG\CREATEROOMRESPONSE.OBJ
C:\USERS\MAGSHIMIM\SOURCE\REPOS\TRIVIA\TRIVIA\DEBUG\CLOSEROOMRESPONSE.OBJ
C:\USERS\MAGSHIMIM\SOURCE\REPOS\TRIVIA\TRIVIA\DEBUG\REQUESTHANDLERFACTORY.OBJ
C:\USERS\MAGSHIMIM\SOURCE\REPOS\TRIVIA\TRIVIA\DEBUG\ROOMMANAGER.OBJ
C:\USERS\MAGSHIMIM\SOURCE\REPOS\TRIVIA\TRIVIA\DEBUG\LOGINMANAGER.OBJ
C:\USERS\MAGSHIMIM\SOURCE\REPOS\TRIVIA\TRIVIA\DEBUG\JSONRESPONSEPACKETSERIALIZER.OBJ
C:\USERS\MAGSHIMIM\SOURCE\REPOS\TRIVIA\TRIVIA\DEBUG\HELPER.OBJ
C:\USERS\MAGSHIMIM\SOURCE\REPOS\TRIVIA\TRIVIA\DEBUG\MENUREQUESTHANDLER.OBJ
C:\USERS\MAGSHIMIM\SOURCE\REPOS\TRIVIA\TRIVIA\DEBUG\LOGINREQUESTHANDLER.OBJ
C:\USERS\MAGSHIMIM\SOURCE\REPOS\TRIVIA\TRIVIA\DEBUG\COMMUNICATOR.OBJ
^C:\USERS\MAGSHIMIM\SOURCE\REPOS\TRIVIA\TRIVIA\RESPONSES\CLOSEROOMRESPONSE.CPP
C:\USERS\MAGSHIMIM\SOURCE\REPOS\TRIVIA\TRIVIA\DEBUG\VC141.PDB
^C:\USERS\MAGSHIMIM\SOURCE\REPOS\TRIVIA\TRIVIA\RESPONSES\CREATEROOMRESPONSE.CPP
C:\USERS\MAGSHIMIM\SOURCE\REPOS\TRIVIA\TRIVIA\DEBUG\VC141.PDB
^C:\USERS\MAGSHIMIM\SOURCE\REPOS\TRIVIA\TRIVIA\RESPONSES\STARTGAMERESPONSE.CPP
C:\USERS\MAGSHIMIM\SOURCE\REPOS\TRIVIA\TRIVIA\DEBUG\VC141.PDB
^C:\USERS\MAGSHIMIM\SOURCE\REPOS\TRIVIA\TRIVIA\COMMUNICATOR.CPP|C:\USERS\MAGSHIMIM\SOURCE\REPOS\TRIVIA\TRIVIA\HANDLERS\LOGINREQUESTHANDLER.CPP|C:\USERS\MAGSHIMIM\SOURCE\REPOS\TRIVIA\TRIVIA\HANDLERS\MENUREQUESTHANDLER.CPP|C:\USERS\MAGSHIMIM\SOURCE\REPOS\TRIVIA\TRIVIA\JSONRESPONSEPACKETSERIALIZER.CPP|C:\USERS\MAGSHIMIM\SOURCE\REPOS\TRIVIA\TRIVIA\MAIN.CPP|C:\USERS\MAGSHIMIM\SOURCE\REPOS\TRIVIA\TRIVIA\REQUESTHANDLERFACTORY.CPP|C:\USERS\MAGSHIMIM\SOURCE\REPOS\TRIVIA\TRIVIA\RESPONSES\GETROOMSTATERESPONSE.CPP|C:\USERS\MAGSHIMIM\SOURCE\REPOS\TRIVIA\TRIVIA\SERVER.CPP
C:\USERS\MAGSHIMIM\SOURCE\REPOS\TRIVIA\TRIVIA\DEBUG\VC141.PDB
C:\USERS\MAGSHIMIM\SOURCE\REPOS\TRIVIA\TRIVIA\DEBUG\VC141.IDB
C:\USERS\MAGSHIMIM\SOURCE\REPOS\TRIVIA\TRIVIA\DEBUG\MAIN.OBJ
C:\USERS\MAGSHIMIM\SOURCE\REPOS\TRIVIA\TRIVIA\DEBUG\SERVER.OBJ
C:\USERS\MAGSHIMIM\SOURCE\REPOS\TRIVIA\TRIVIA\DEBUG\GETROOMSTATERESPONSE.OBJ
C:\USERS\MAGSHIMIM\SOURCE\REPOS\TRIVIA\TRIVIA\DEBUG\REQUESTHANDLERFACTORY.OBJ
C:\USERS\MAGSHIMIM\SOURCE\REPOS\TRIVIA\TRIVIA\DEBUG\JSONRESPONSEPACKETSERIALIZER.OBJ
C:\USERS\MAGSHIMIM\SOURCE\REPOS\TRIVIA\TRIVIA\DEBUG\MENUREQUESTHANDLER.OBJ
C:\USERS\MAGSHIMIM\SOURCE\REPOS\TRIVIA\TRIVIA\DEBUG\LOGINREQUESTHANDLER.OBJ
C:\USERS\MAGSHIMIM\SOURCE\REPOS\TRIVIA\TRIVIA\DEBUG\COMMUNICATOR.OBJ
^C:\USERS\MAGSHIMIM\SOURCE\REPOS\TRIVIA\TRIVIA\COMMUNICATOR.CPP|C:\USERS\MAGSHIMIM\SOURCE\REPOS\TRIVIA\TRIVIA\HANDLERS\LOGINREQUESTHANDLER.CPP|C:\USERS\MAGSHIMIM\SOURCE\REPOS\TRIVIA\TRIVIA\HANDLERS\MENUREQUESTHANDLER.CPP|C:\USERS\MAGSHIMIM\SOURCE\REPOS\TRIVIA\TRIVIA\JSONRESPONSEPACKETSERIALIZER.CPP|C:\USERS\MAGSHIMIM\SOURCE\REPOS\TRIVIA\TRIVIA\MAIN.CPP|C:\USERS\MAGSHIMIM\SOURCE\REPOS\TRIVIA\TRIVIA\REQUESTHANDLERFACTORY.CPP|C:\USERS\MAGSHIMIM\SOURCE\REPOS\TRIVIA\TRIVIA\SERVER.CPP
C:\USERS\MAGSHIMIM\SOURCE\REPOS\TRIVIA\TRIVIA\DEBUG\VC141.PDB
C:\USERS\MAGSHIMIM\SOURCE\REPOS\TRIVIA\TRIVIA\DEBUG\VC141.IDB
C:\USERS\MAGSHIMIM\SOURCE\REPOS\TRIVIA\TRIVIA\DEBUG\MAIN.OBJ
C:\USERS\MAGSHIMIM\SOURCE\REPOS\TRIVIA\TRIVIA\DEBUG\SERVER.OBJ
C:\USERS\MAGSHIMIM\SOURCE\REPOS\TRIVIA\TRIVIA\DEBUG\REQUESTHANDLERFACTORY.OBJ
C:\USERS\MAGSHIMIM\SOURCE\REPOS\TRIVIA\TRIVIA\DEBUG\JSONRESPONSEPACKETSERIALIZER.OBJ
C:\USERS\MAGSHIMIM\SOURCE\REPOS\TRIVIA\TRIVIA\DEBUG\MENUREQUESTHANDLER.OBJ
C:\USERS\MAGSHIMIM\SOURCE\REPOS\TRIVIA\TRIVIA\DEBUG\LOGINREQUESTHANDLER.OBJ
C:\USERS\MAGSHIMIM\SOURCE\REPOS\TRIVIA\TRIVIA\DEBUG\COMMUNICATOR.OBJ
^C:\USERS\MAGSHIMIM\SOURCE\REPOS\TRIVIA\TRIVIA\COMMUNICATOR.CPP|C:\USERS\MAGSHIMIM\SOURCE\REPOS\TRIVIA\TRIVIA\HANDLERS\LOGINREQUESTHANDLER.CPP|C:\USERS\MAGSHIMIM\SOURCE\REPOS\TRIVIA\TRIVIA\HANDLERS\MENUREQUESTHANDLER.CPP|C:\USERS\MAGSHIMIM\SOURCE\REPOS\TRIVIA\TRIVIA\HANDLERS\ROOMADMINREQUESTHANDLER.CPP|C:\USERS\MAGSHIMIM\SOURCE\REPOS\TRIVIA\TRIVIA\HELPER.CPP|C:\USERS\MAGSHIMIM\SOURCE\REPOS\TRIVIA\TRIVIA\JSONRESPONSEPACKETSERIALIZER.CPP|C:\USERS\MAGSHIMIM\SOURCE\REPOS\TRIVIA\TRIVIA\MAIN.CPP|C:\USERS\MAGSHIMIM\SOURCE\REPOS\TRIVIA\TRIVIA\MANAGERS\LOGINMANAGER.CPP|C:\USERS\MAGSHIMIM\SOURCE\REPOS\TRIVIA\TRIVIA\MANAGERS\ROOM.CPP|C:\USERS\MAGSHIMIM\SOURCE\REPOS\TRIVIA\TRIVIA\MANAGERS\ROOMMANAGER.CPP|C:\USERS\MAGSHIMIM\SOURCE\REPOS\TRIVIA\TRIVIA\REQUESTHANDLERFACTORY.CPP|C:\USERS\MAGSHIMIM\SOURCE\REPOS\TRIVIA\TRIVIA\RESPONSES\GETROOMSRESPONSE.CPP|C:\USERS\MAGSHIMIM\SOURCE\REPOS\TRIVIA\TRIVIA\SERVER.CPP
C:\USERS\MAGSHIMIM\SOURCE\REPOS\TRIVIA\TRIVIA\DEBUG\VC141.PDB
C:\USERS\MAGSHIMIM\SOURCE\REPOS\TRIVIA\TRIVIA\DEBUG\VC141.IDB
C:\USERS\MAGSHIMIM\SOURCE\REPOS\TRIVIA\TRIVIA\DEBUG\SERVER.OBJ
C:\USERS\MAGSHIMIM\SOURCE\REPOS\TRIVIA\TRIVIA\DEBUG\GETROOMSRESPONSE.OBJ
C:\USERS\MAGSHIMIM\SOURCE\REPOS\TRIVIA\TRIVIA\DEBUG\REQUESTHANDLERFACTORY.OBJ
C:\USERS\MAGSHIMIM\SOURCE\REPOS\TRIVIA\TRIVIA\DEBUG\ROOMMANAGER.OBJ
C:\USERS\MAGSHIMIM\SOURCE\REPOS\TRIVIA\TRIVIA\DEBUG\ROOM.OBJ
C:\USERS\MAGSHIMIM\SOURCE\REPOS\TRIVIA\TRIVIA\DEBUG\LOGINMANAGER.OBJ
C:\USERS\MAGSHIMIM\SOURCE\REPOS\TRIVIA\TRIVIA\DEBUG\MAIN.OBJ
C:\USERS\MAGSHIMIM\SOURCE\REPOS\TRIVIA\TRIVIA\DEBUG\JSONRESPONSEPACKETSERIALIZER.OBJ
C:\USERS\MAGSHIMIM\SOURCE\REPOS\TRIVIA\TRIVIA\DEBUG\HELPER.OBJ
C:\USERS\MAGSHIMIM\SOURCE\REPOS\TRIVIA\TRIVIA\DEBUG\MENUREQUESTHANDLER.OBJ
C:\USERS\MAGSHIMIM\SOURCE\REPOS\TRIVIA\TRIVIA\DEBUG\LOGINREQUESTHANDLER.OBJ
C:\USERS\MAGSHIMIM\SOURCE\REPOS\TRIVIA\TRIVIA\DEBUG\COMMUNICATOR.OBJ
^C:\USERS\MAGSHIMIM\SOURCE\REPOS\TRIVIA\TRIVIA\COMMUNICATOR.CPP|C:\USERS\MAGSHIMIM\SOURCE\REPOS\TRIVIA\TRIVIA\HANDLERS\LOGINREQUESTHANDLER.CPP|C:\USERS\MAGSHIMIM\SOURCE\REPOS\TRIVIA\TRIVIA\HANDLERS\MENUREQUESTHANDLER.CPP|C:\USERS\MAGSHIMIM\SOURCE\REPOS\TRIVIA\TRIVIA\HANDLERS\ROOMADMINREQUESTHANDLER.CPP|C:\USERS\MAGSHIMIM\SOURCE\REPOS\TRIVIA\TRIVIA\HELPER.CPP|C:\USERS\MAGSHIMIM\SOURCE\REPOS\TRIVIA\TRIVIA\JSONRESPONSEPACKETSERIALIZER.CPP|C:\USERS\MAGSHIMIM\SOURCE\REPOS\TRIVIA\TRIVIA\MAIN.CPP|C:\USERS\MAGSHIMIM\SOURCE\REPOS\TRIVIA\TRIVIA\MANAGERS\LOGINMANAGER.CPP|C:\USERS\MAGSHIMIM\SOURCE\REPOS\TRIVIA\TRIVIA\MANAGERS\ROOM.CPP|C:\USERS\MAGSHIMIM\SOURCE\REPOS\TRIVIA\TRIVIA\MANAGERS\ROOMDATA.CPP|C:\USERS\MAGSHIMIM\SOURCE\REPOS\TRIVIA\TRIVIA\MANAGERS\ROOMMANAGER.CPP|C:\USERS\MAGSHIMIM\SOURCE\REPOS\TRIVIA\TRIVIA\REQUESTHANDLERFACTORY.CPP|C:\USERS\MAGSHIMIM\SOURCE\REPOS\TRIVIA\TRIVIA\RESPONSES\GETROOMSRESPONSE.CPP|C:\USERS\MAGSHIMIM\SOURCE\REPOS\TRIVIA\TRIVIA\SERVER.CPP
C:\USERS\MAGSHIMIM\SOURCE\REPOS\TRIVIA\TRIVIA\DEBUG\VC141.PDB
C:\USERS\MAGSHIMIM\SOURCE\REPOS\TRIVIA\TRIVIA\DEBUG\VC141.IDB
C:\USERS\MAGSHIMIM\SOURCE\REPOS\TRIVIA\TRIVIA\DEBUG\GETROOMSRESPONSE.OBJ
C:\USERS\MAGSHIMIM\SOURCE\REPOS\TRIVIA\TRIVIA\DEBUG\ROOMMANAGER.OBJ
C:\USERS\MAGSHIMIM\SOURCE\REPOS\TRIVIA\TRIVIA\DEBUG\ROOMDATA.OBJ
C:\USERS\MAGSHIMIM\SOURCE\REPOS\TRIVIA\TRIVIA\DEBUG\ROOM.OBJ
C:\USERS\MAGSHIMIM\SOURCE\REPOS\TRIVIA\TRIVIA\DEBUG\LOGINMANAGER.OBJ
C:\USERS\MAGSHIMIM\SOURCE\REPOS\TRIVIA\TRIVIA\DEBUG\HELPER.OBJ
^C:\USERS\MAGSHIMIM\SOURCE\REPOS\TRIVIA\TRIVIA\COMMUNICATOR.CPP|C:\USERS\MAGSHIMIM\SOURCE\REPOS\TRIVIA\TRIVIA\HANDLERS\LOGINREQUESTHANDLER.CPP|C:\USERS\MAGSHIMIM\SOURCE\REPOS\TRIVIA\TRIVIA\HANDLERS\MENUREQUESTHANDLER.CPP|C:\USERS\MAGSHIMIM\SOURCE\REPOS\TRIVIA\TRIVIA\HANDLERS\ROOMADMINREQUESTHANDLER.CPP|C:\USERS\MAGSHIMIM\SOURCE\REPOS\TRIVIA\TRIVIA\JSONRESPONSEPACKETSERIALIZER.CPP|C:\USERS\MAGSHIMIM\SOURCE\REPOS\TRIVIA\TRIVIA\MAIN.CPP|C:\USERS\MAGSHIMIM\SOURCE\REPOS\TRIVIA\TRIVIA\REQUESTHANDLERFACTORY.CPP|C:\USERS\MAGSHIMIM\SOURCE\REPOS\TRIVIA\TRIVIA\SERVER.CPP
C:\USERS\MAGSHIMIM\SOURCE\REPOS\TRIVIA\TRIVIA\DEBUG\VC141.PDB
C:\USERS\MAGSHIMIM\SOURCE\REPOS\TRIVIA\TRIVIA\DEBUG\VC141.IDB
C:\USERS\MAGSHIMIM\SOURCE\REPOS\TRIVIA\TRIVIA\DEBUG\SERVER.OBJ
C:\USERS\MAGSHIMIM\SOURCE\REPOS\TRIVIA\TRIVIA\DEBUG\REQUESTHANDLERFACTORY.OBJ
C:\USERS\MAGSHIMIM\SOURCE\REPOS\TRIVIA\TRIVIA\DEBUG\MAIN.OBJ
C:\USERS\MAGSHIMIM\SOURCE\REPOS\TRIVIA\TRIVIA\DEBUG\JSONRESPONSEPACKETSERIALIZER.OBJ
C:\USERS\MAGSHIMIM\SOURCE\REPOS\TRIVIA\TRIVIA\DEBUG\ROOMADMINREQUESTHANDLER.OBJ
C:\USERS\MAGSHIMIM\SOURCE\REPOS\TRIVIA\TRIVIA\DEBUG\MENUREQUESTHANDLER.OBJ
C:\USERS\MAGSHIMIM\SOURCE\REPOS\TRIVIA\TRIVIA\DEBUG\LOGINREQUESTHANDLER.OBJ
C:\USERS\MAGSHIMIM\SOURCE\REPOS\TRIVIA\TRIVIA\DEBUG\COMMUNICATOR.OBJ
^C:\USERS\MAGSHIMIM\SOURCE\REPOS\TRIVIA\TRIVIA\COMMUNICATOR.CPP|C:\USERS\MAGSHIMIM\SOURCE\REPOS\TRIVIA\TRIVIA\HANDLERS\LOGINREQUESTHANDLER.CPP|C:\USERS\MAGSHIMIM\SOURCE\REPOS\TRIVIA\TRIVIA\HANDLERS\MENUREQUESTHANDLER.CPP|C:\USERS\MAGSHIMIM\SOURCE\REPOS\TRIVIA\TRIVIA\HANDLERS\ROOMADMINREQUESTHANDLER.CPP|C:\USERS\MAGSHIMIM\SOURCE\REPOS\TRIVIA\TRIVIA\HELPER.CPP|C:\USERS\MAGSHIMIM\SOURCE\REPOS\TRIVIA\TRIVIA\JSONRESPONSEPACKETSERIALIZER.CPP|C:\USERS\MAGSHIMIM\SOURCE\REPOS\TRIVIA\TRIVIA\MAIN.CPP|C:\USERS\MAGSHIMIM\SOURCE\REPOS\TRIVIA\TRIVIA\MANAGERS\LOGINMANAGER.CPP|C:\USERS\MAGSHIMIM\SOURCE\REPOS\TRIVIA\TRIVIA\MANAGERS\ROOMMANAGER.CPP|C:\USERS\MAGSHIMIM\SOURCE\REPOS\TRIVIA\TRIVIA\REQUESTHANDLERFACTORY.CPP|C:\USERS\MAGSHIMIM\SOURCE\REPOS\TRIVIA\TRIVIA\SERVER.CPP
C:\USERS\MAGSHIMIM\SOURCE\REPOS\TRIVIA\TRIVIA\DEBUG\VC141.PDB
C:\USERS\MAGSHIMIM\SOURCE\REPOS\TRIVIA\TRIVIA\DEBUG\VC141.IDB
C:\USERS\MAGSHIMIM\SOURCE\REPOS\TRIVIA\TRIVIA\DEBUG\MAIN.OBJ
C:\USERS\MAGSHIMIM\SOURCE\REPOS\TRIVIA\TRIVIA\DEBUG\SERVER.OBJ
C:\USERS\MAGSHIMIM\SOURCE\REPOS\TRIVIA\TRIVIA\DEBUG\REQUESTHANDLERFACTORY.OBJ
C:\USERS\MAGSHIMIM\SOURCE\REPOS\TRIVIA\TRIVIA\DEBUG\ROOMMANAGER.OBJ
C:\USERS\MAGSHIMIM\SOURCE\REPOS\TRIVIA\TRIVIA\DEBUG\LOGINMANAGER.OBJ
C:\USERS\MAGSHIMIM\SOURCE\REPOS\TRIVIA\TRIVIA\DEBUG\JSONRESPONSEPACKETSERIALIZER.OBJ
C:\USERS\MAGSHIMIM\SOURCE\REPOS\TRIVIA\TRIVIA\DEBUG\HELPER.OBJ
C:\USERS\MAGSHIMIM\SOURCE\REPOS\TRIVIA\TRIVIA\DEBUG\ROOMADMINREQUESTHANDLER.OBJ
C:\USERS\MAGSHIMIM\SOURCE\REPOS\TRIVIA\TRIVIA\DEBUG\MENUREQUESTHANDLER.OBJ
C:\USERS\MAGSHIMIM\SOURCE\REPOS\TRIVIA\TRIVIA\DEBUG\LOGINREQUESTHANDLER.OBJ
C:\USERS\MAGSHIMIM\SOURCE\REPOS\TRIVIA\TRIVIA\DEBUG\COMMUNICATOR.OBJ
^C:\USERS\MAGSHIMIM\SOURCE\REPOS\TRIVIA\TRIVIA\COMMUNICATOR.CPP|C:\USERS\MAGSHIMIM\SOURCE\REPOS\TRIVIA\TRIVIA\HANDLERS\LOGINREQUESTHANDLER.CPP|C:\USERS\MAGSHIMIM\SOURCE\REPOS\TRIVIA\TRIVIA\HANDLERS\MENUREQUESTHANDLER.CPP|C:\USERS\MAGSHIMIM\SOURCE\REPOS\TRIVIA\TRIVIA\HANDLERS\ROOMADMINREQUESTHANDLER.CPP|C:\USERS\MAGSHIMIM\SOURCE\REPOS\TRIVIA\TRIVIA\HANDLERS\ROOMMEMBERREQUESTHANDLER.CPP|C:\USERS\MAGSHIMIM\SOURCE\REPOS\TRIVIA\TRIVIA\JSONRESPONSEPACKETSERIALIZER.CPP|C:\USERS\MAGSHIMIM\SOURCE\REPOS\TRIVIA\TRIVIA\MAIN.CPP|C:\USERS\MAGSHIMIM\SOURCE\REPOS\TRIVIA\TRIVIA\MANAGERS\ROOM.CPP|C:\USERS\MAGSHIMIM\SOURCE\REPOS\TRIVIA\TRIVIA\MANAGERS\ROOMDATA.CPP|C:\USERS\MAGSHIMIM\SOURCE\REPOS\TRIVIA\TRIVIA\MANAGERS\ROOMMANAGER.CPP|C:\USERS\MAGSHIMIM\SOURCE\REPOS\TRIVIA\TRIVIA\REQUESTHANDLERFACTORY.CPP|C:\USERS\MAGSHIMIM\SOURCE\REPOS\TRIVIA\TRIVIA\RESPONSES\GETROOMSRESPONSE.CPP|C:\USERS\MAGSHIMIM\SOURCE\REPOS\TRIVIA\TRIVIA\SERVER.CPP
C:\USERS\MAGSHIMIM\SOURCE\REPOS\TRIVIA\TRIVIA\DEBUG\VC141.PDB
C:\USERS\MAGSHIMIM\SOURCE\REPOS\TRIVIA\TRIVIA\DEBUG\VC141.IDB
C:\USERS\MAGSHIMIM\SOURCE\REPOS\TRIVIA\TRIVIA\DEBUG\SERVER.OBJ
C:\USERS\MAGSHIMIM\SOURCE\REPOS\TRIVIA\TRIVIA\DEBUG\GETROOMSRESPONSE.OBJ
C:\USERS\MAGSHIMIM\SOURCE\REPOS\TRIVIA\TRIVIA\DEBUG\REQUESTHANDLERFACTORY.OBJ
C:\USERS\MAGSHIMIM\SOURCE\REPOS\TRIVIA\TRIVIA\DEBUG\ROOMMANAGER.OBJ
C:\USERS\MAGSHIMIM\SOURCE\REPOS\TRIVIA\TRIVIA\DEBUG\ROOMDATA.OBJ
C:\USERS\MAGSHIMIM\SOURCE\REPOS\TRIVIA\TRIVIA\DEBUG\ROOM.OBJ
C:\USERS\MAGSHIMIM\SOURCE\REPOS\TRIVIA\TRIVIA\DEBUG\MAIN.OBJ
C:\USERS\MAGSHIMIM\SOURCE\REPOS\TRIVIA\TRIVIA\DEBUG\JSONRESPONSEPACKETSERIALIZER.OBJ
C:\USERS\MAGSHIMIM\SOURCE\REPOS\TRIVIA\TRIVIA\DEBUG\ROOMMEMBERREQUESTHANDLER.OBJ
C:\USERS\MAGSHIMIM\SOURCE\REPOS\TRIVIA\TRIVIA\DEBUG\ROOMADMINREQUESTHANDLER.OBJ
C:\USERS\MAGSHIMIM\SOURCE\REPOS\TRIVIA\TRIVIA\DEBUG\MENUREQUESTHANDLER.OBJ
C:\USERS\MAGSHIMIM\SOURCE\REPOS\TRIVIA\TRIVIA\DEBUG\LOGINREQUESTHANDLER.OBJ
C:\USERS\MAGSHIMIM\SOURCE\REPOS\TRIVIA\TRIVIA\DEBUG\COMMUNICATOR.OBJ
^C:\USERS\MAGSHIMIM\SOURCE\REPOS\TRIVIA\TRIVIA\MANAGERS\ROOMDATA.CPP
C:\USERS\MAGSHIMIM\SOURCE\REPOS\TRIVIA\TRIVIA\DEBUG\VC141.PDB
^C:\USERS\MAGSHIMIM\SOURCE\REPOS\TRIVIA\TRIVIA\COMMUNICATOR.CPP|C:\USERS\MAGSHIMIM\SOURCE\REPOS\TRIVIA\TRIVIA\HANDLERS\LOGINREQUESTHANDLER.CPP|C:\USERS\MAGSHIMIM\SOURCE\REPOS\TRIVIA\TRIVIA\HANDLERS\MENUREQUESTHANDLER.CPP|C:\USERS\MAGSHIMIM\SOURCE\REPOS\TRIVIA\TRIVIA\HANDLERS\ROOMADMINREQUESTHANDLER.CPP|C:\USERS\MAGSHIMIM\SOURCE\REPOS\TRIVIA\TRIVIA\HANDLERS\ROOMMEMBERREQUESTHANDLER.CPP|C:\USERS\MAGSHIMIM\SOURCE\REPOS\TRIVIA\TRIVIA\HELPER.CPP|C:\USERS\MAGSHIMIM\SOURCE\REPOS\TRIVIA\TRIVIA\JSONRESPONSEPACKETSERIALIZER.CPP|C:\USERS\MAGSHIMIM\SOURCE\REPOS\TRIVIA\TRIVIA\MAIN.CPP|C:\USERS\MAGSHIMIM\SOURCE\REPOS\TRIVIA\TRIVIA\MANAGERS\LOGINMANAGER.CPP|C:\USERS\MAGSHIMIM\SOURCE\REPOS\TRIVIA\TRIVIA\MANAGERS\ROOMMANAGER.CPP|C:\USERS\MAGSHIMIM\SOURCE\REPOS\TRIVIA\TRIVIA\REQUESTHANDLERFACTORY.CPP|C:\USERS\MAGSHIMIM\SOURCE\REPOS\TRIVIA\TRIVIA\SERVER.CPP
C:\USERS\MAGSHIMIM\SOURCE\REPOS\TRIVIA\TRIVIA\DEBUG\VC141.PDB
C:\USERS\MAGSHIMIM\SOURCE\REPOS\TRIVIA\TRIVIA\DEBUG\VC141.IDB
C:\USERS\MAGSHIMIM\SOURCE\REPOS\TRIVIA\TRIVIA\DEBUG\MAIN.OBJ
C:\USERS\MAGSHIMIM\SOURCE\REPOS\TRIVIA\TRIVIA\DEBUG\SERVER.OBJ
C:\USERS\MAGSHIMIM\SOURCE\REPOS\TRIVIA\TRIVIA\DEBUG\REQUESTHANDLERFACTORY.OBJ
C:\USERS\MAGSHIMIM\SOURCE\REPOS\TRIVIA\TRIVIA\DEBUG\ROOMMANAGER.OBJ
C:\USERS\MAGSHIMIM\SOURCE\REPOS\TRIVIA\TRIVIA\DEBUG\LOGINMANAGER.OBJ
C:\USERS\MAGSHIMIM\SOURCE\REPOS\TRIVIA\TRIVIA\DEBUG\JSONRESPONSEPACKETSERIALIZER.OBJ
C:\USERS\MAGSHIMIM\SOURCE\REPOS\TRIVIA\TRIVIA\DEBUG\HELPER.OBJ
C:\USERS\MAGSHIMIM\SOURCE\REPOS\TRIVIA\TRIVIA\DEBUG\ROOMMEMBERREQUESTHANDLER.OBJ
C:\USERS\MAGSHIMIM\SOURCE\REPOS\TRIVIA\TRIVIA\DEBUG\ROOMADMINREQUESTHANDLER.OBJ
C:\USERS\MAGSHIMIM\SOURCE\REPOS\TRIVIA\TRIVIA\DEBUG\MENUREQUESTHANDLER.OBJ
C:\USERS\MAGSHIMIM\SOURCE\REPOS\TRIVIA\TRIVIA\DEBUG\LOGINREQUESTHANDLER.OBJ
C:\USERS\MAGSHIMIM\SOURCE\REPOS\TRIVIA\TRIVIA\DEBUG\COMMUNICATOR.OBJ
^C:\USERS\MAGSHIMIM\SOURCE\REPOS\TRIVIA\TRIVIA\MANAGERS\LOGINMANAGER.CPP
C:\USERS\MAGSHIMIM\SOURCE\REPOS\TRIVIA\TRIVIA\DEBUG\VC141.PDB
^C:\USERS\MAGSHIMIM\SOURCE\REPOS\TRIVIA\TRIVIA\COMMUNICATOR.CPP|C:\USERS\MAGSHIMIM\SOURCE\REPOS\TRIVIA\TRIVIA\HANDLERS\LOGINREQUESTHANDLER.CPP|C:\USERS\MAGSHIMIM\SOURCE\REPOS\TRIVIA\TRIVIA\HANDLERS\MENUREQUESTHANDLER.CPP|C:\USERS\MAGSHIMIM\SOURCE\REPOS\TRIVIA\TRIVIA\HANDLERS\ROOMADMINREQUESTHANDLER.CPP|C:\USERS\MAGSHIMIM\SOURCE\REPOS\TRIVIA\TRIVIA\HANDLERS\ROOMMEMBERREQUESTHANDLER.CPP|C:\USERS\MAGSHIMIM\SOURCE\REPOS\TRIVIA\TRIVIA\MAIN.CPP|C:\USERS\MAGSHIMIM\SOURCE\REPOS\TRIVIA\TRIVIA\MANAGERS\ROOMMANAGER.CPP|C:\USERS\MAGSHIMIM\SOURCE\REPOS\TRIVIA\TRIVIA\REQUESTHANDLERFACTORY.CPP|C:\USERS\MAGSHIMIM\SOURCE\REPOS\TRIVIA\TRIVIA\SERVER.CPP
C:\USERS\MAGSHIMIM\SOURCE\REPOS\TRIVIA\TRIVIA\DEBUG\VC141.PDB
C:\USERS\MAGSHIMIM\SOURCE\REPOS\TRIVIA\TRIVIA\DEBUG\VC141.IDB
C:\USERS\MAGSHIMIM\SOURCE\REPOS\TRIVIA\TRIVIA\DEBUG\MAIN.OBJ
C:\USERS\MAGSHIMIM\SOURCE\REPOS\TRIVIA\TRIVIA\DEBUG\SERVER.OBJ
C:\USERS\MAGSHIMIM\SOURCE\REPOS\TRIVIA\TRIVIA\DEBUG\REQUESTHANDLERFACTORY.OBJ
C:\USERS\MAGSHIMIM\SOURCE\REPOS\TRIVIA\TRIVIA\DEBUG\ROOMMANAGER.OBJ
C:\USERS\MAGSHIMIM\SOURCE\REPOS\TRIVIA\TRIVIA\DEBUG\ROOMMEMBERREQUESTHANDLER.OBJ
C:\USERS\MAGSHIMIM\SOURCE\REPOS\TRIVIA\TRIVIA\DEBUG\ROOMADMINREQUESTHANDLER.OBJ
C:\USERS\MAGSHIMIM\SOURCE\REPOS\TRIVIA\TRIVIA\DEBUG\LOGINREQUESTHANDLER.OBJ
C:\USERS\MAGSHIMIM\SOURCE\REPOS\TRIVIA\TRIVIA\DEBUG\COMMUNICATOR.OBJ
^C:\USERS\MAGSHIMIM\SOURCE\REPOS\TRIVIA\TRIVIA\COMMUNICATOR.CPP|C:\USERS\MAGSHIMIM\SOURCE\REPOS\TRIVIA\TRIVIA\HANDLERS\LOGINREQUESTHANDLER.CPP|C:\USERS\MAGSHIMIM\SOURCE\REPOS\TRIVIA\TRIVIA\HANDLERS\MENUREQUESTHANDLER.CPP|C:\USERS\MAGSHIMIM\SOURCE\REPOS\TRIVIA\TRIVIA\HANDLERS\ROOMADMINREQUESTHANDLER.CPP|C:\USERS\MAGSHIMIM\SOURCE\REPOS\TRIVIA\TRIVIA\HANDLERS\ROOMMEMBERREQUESTHANDLER.CPP|C:\USERS\MAGSHIMIM\SOURCE\REPOS\TRIVIA\TRIVIA\JSONRESPONSEPACKETSERIALIZER.CPP|C:\USERS\MAGSHIMIM\SOURCE\REPOS\TRIVIA\TRIVIA\MAIN.CPP|C:\USERS\MAGSHIMIM\SOURCE\REPOS\TRIVIA\TRIVIA\REQUESTHANDLERFACTORY.CPP|C:\USERS\MAGSHIMIM\SOURCE\REPOS\TRIVIA\TRIVIA\RESPONSES\GETROOMSTATERESPONSE.CPP|C:\USERS\MAGSHIMIM\SOURCE\REPOS\TRIVIA\TRIVIA\SERVER.CPP
C:\USERS\MAGSHIMIM\SOURCE\REPOS\TRIVIA\TRIVIA\DEBUG\VC141.PDB
C:\USERS\MAGSHIMIM\SOURCE\REPOS\TRIVIA\TRIVIA\DEBUG\VC141.IDB
C:\USERS\MAGSHIMIM\SOURCE\REPOS\TRIVIA\TRIVIA\DEBUG\MAIN.OBJ
C:\USERS\MAGSHIMIM\SOURCE\REPOS\TRIVIA\TRIVIA\DEBUG\SERVER.OBJ
C:\USERS\MAGSHIMIM\SOURCE\REPOS\TRIVIA\TRIVIA\DEBUG\GETROOMSTATERESPONSE.OBJ
C:\USERS\MAGSHIMIM\SOURCE\REPOS\TRIVIA\TRIVIA\DEBUG\REQUESTHANDLERFACTORY.OBJ
C:\USERS\MAGSHIMIM\SOURCE\REPOS\TRIVIA\TRIVIA\DEBUG\JSONRESPONSEPACKETSERIALIZER.OBJ
C:\USERS\MAGSHIMIM\SOURCE\REPOS\TRIVIA\TRIVIA\DEBUG\ROOMMEMBERREQUESTHANDLER.OBJ
C:\USERS\MAGSHIMIM\SOURCE\REPOS\TRIVIA\TRIVIA\DEBUG\ROOMADMINREQUESTHANDLER.OBJ
C:\USERS\MAGSHIMIM\SOURCE\REPOS\TRIVIA\TRIVIA\DEBUG\MENUREQUESTHANDLER.OBJ
C:\USERS\MAGSHIMIM\SOURCE\REPOS\TRIVIA\TRIVIA\DEBUG\LOGINREQUESTHANDLER.OBJ
C:\USERS\MAGSHIMIM\SOURCE\REPOS\TRIVIA\TRIVIA\DEBUG\COMMUNICATOR.OBJ
^C:\USERS\MAGSHIMIM\SOURCE\REPOS\TRIVIA\TRIVIA\RESPONSES\GETROOMSTATERESPONSE.CPP
C:\USERS\MAGSHIMIM\SOURCE\REPOS\TRIVIA\TRIVIA\DEBUG\VC141.PDB
^C:\USERS\MAGSHIMIM\SOURCE\REPOS\TRIVIA\TRIVIA\COMMUNICATOR.CPP|C:\USERS\MAGSHIMIM\SOURCE\REPOS\TRIVIA\TRIVIA\HANDLERS\LOGINREQUESTHANDLER.CPP|C:\USERS\MAGSHIMIM\SOURCE\REPOS\TRIVIA\TRIVIA\HANDLERS\MENUREQUESTHANDLER.CPP|C:\USERS\MAGSHIMIM\SOURCE\REPOS\TRIVIA\TRIVIA\HANDLERS\ROOMADMINREQUESTHANDLER.CPP|C:\USERS\MAGSHIMIM\SOURCE\REPOS\TRIVIA\TRIVIA\HANDLERS\ROOMMEMBERREQUESTHANDLER.CPP|C:\USERS\MAGSHIMIM\SOURCE\REPOS\TRIVIA\TRIVIA\JSONRESPONSEPACKETSERIALIZER.CPP|C:\USERS\MAGSHIMIM\SOURCE\REPOS\TRIVIA\TRIVIA\MAIN.CPP|C:\USERS\MAGSHIMIM\SOURCE\REPOS\TRIVIA\TRIVIA\MANAGERS\ROOM.CPP|C:\USERS\MAGSHIMIM\SOURCE\REPOS\TRIVIA\TRIVIA\MANAGERS\ROOMMANAGER.CPP|C:\USERS\MAGSHIMIM\SOURCE\REPOS\TRIVIA\TRIVIA\REQUESTHANDLERFACTORY.CPP|C:\USERS\MAGSHIMIM\SOURCE\REPOS\TRIVIA\TRIVIA\RESPONSES\GETROOMSRESPONSE.CPP|C:\USERS\MAGSHIMIM\SOURCE\REPOS\TRIVIA\TRIVIA\SERVER.CPP
C:\USERS\MAGSHIMIM\SOURCE\REPOS\TRIVIA\TRIVIA\DEBUG\VC141.PDB
C:\USERS\MAGSHIMIM\SOURCE\REPOS\TRIVIA\TRIVIA\DEBUG\VC141.IDB
C:\USERS\MAGSHIMIM\SOURCE\REPOS\TRIVIA\TRIVIA\DEBUG\MAIN.OBJ
C:\USERS\MAGSHIMIM\SOURCE\REPOS\TRIVIA\TRIVIA\DEBUG\SERVER.OBJ
C:\USERS\MAGSHIMIM\SOURCE\REPOS\TRIVIA\TRIVIA\DEBUG\GETROOMSRESPONSE.OBJ
C:\USERS\MAGSHIMIM\SOURCE\REPOS\TRIVIA\TRIVIA\DEBUG\REQUESTHANDLERFACTORY.OBJ
C:\USERS\MAGSHIMIM\SOURCE\REPOS\TRIVIA\TRIVIA\DEBUG\ROOMMANAGER.OBJ
C:\USERS\MAGSHIMIM\SOURCE\REPOS\TRIVIA\TRIVIA\DEBUG\ROOM.OBJ
C:\USERS\MAGSHIMIM\SOURCE\REPOS\TRIVIA\TRIVIA\DEBUG\JSONRESPONSEPACKETSERIALIZER.OBJ
C:\USERS\MAGSHIMIM\SOURCE\REPOS\TRIVIA\TRIVIA\DEBUG\ROOMMEMBERREQUESTHANDLER.OBJ
C:\USERS\MAGSHIMIM\SOURCE\REPOS\TRIVIA\TRIVIA\DEBUG\ROOMADMINREQUESTHANDLER.OBJ
C:\USERS\MAGSHIMIM\SOURCE\REPOS\TRIVIA\TRIVIA\DEBUG\MENUREQUESTHANDLER.OBJ
C:\USERS\MAGSHIMIM\SOURCE\REPOS\TRIVIA\TRIVIA\DEBUG\LOGINREQUESTHANDLER.OBJ
C:\USERS\MAGSHIMIM\SOURCE\REPOS\TRIVIA\TRIVIA\DEBUG\COMMUNICATOR.OBJ
^C:\USERS\MAGSHIMIM\SOURCE\REPOS\TRIVIA\TRIVIA\MANAGERS\ROOM.CPP
C:\USERS\MAGSHIMIM\SOURCE\REPOS\TRIVIA\TRIVIA\DEBUG\VC141.PDB
^C:\USERS\MAGSHIMIM\SOURCE\REPOS\TRIVIA\TRIVIA\MANAGERS\ROOMMANAGER.CPP
C:\USERS\MAGSHIMIM\SOURCE\REPOS\TRIVIA\TRIVIA\DEBUG\VC141.PDB
^C:\USERS\MAGSHIMIM\SOURCE\REPOS\TRIVIA\TRIVIA\RESPONSES\GETROOMSRESPONSE.CPP
C:\USERS\MAGSHIMIM\SOURCE\REPOS\TRIVIA\TRIVIA\DEBUG\VC141.PDB
^C:\USERS\MAGSHIMIM\SOURCE\REPOS\TRIVIA\TRIVIA\COMMUNICATOR.CPP|C:\USERS\MAGSHIMIM\SOURCE\REPOS\TRIVIA\TRIVIA\HANDLERS\LOGINREQUESTHANDLER.CPP|C:\USERS\MAGSHIMIM\SOURCE\REPOS\TRIVIA\TRIVIA\HANDLERS\MENUREQUESTHANDLER.CPP|C:\USERS\MAGSHIMIM\SOURCE\REPOS\TRIVIA\TRIVIA\HANDLERS\ROOMADMINREQUESTHANDLER.CPP|C:\USERS\MAGSHIMIM\SOURCE\REPOS\TRIVIA\TRIVIA\HANDLERS\ROOMMEMBERREQUESTHANDLER.CPP|C:\USERS\MAGSHIMIM\SOURCE\REPOS\TRIVIA\TRIVIA\JSONREQUESTPACKETDESERIALIZER.CPP|C:\USERS\MAGSHIMIM\SOURCE\REPOS\TRIVIA\TRIVIA\JSONRESPONSEPACKETSERIALIZER.CPP|C:\USERS\MAGSHIMIM\SOURCE\REPOS\TRIVIA\TRIVIA\MAIN.CPP|C:\USERS\MAGSHIMIM\SOURCE\REPOS\TRIVIA\TRIVIA\PROJECTEXCPTIONS.CPP|C:\USERS\MAGSHIMIM\SOURCE\REPOS\TRIVIA\TRIVIA\REQUESTHANDLERFACTORY.CPP|C:\USERS\MAGSHIMIM\SOURCE\REPOS\TRIVIA\TRIVIA\SERVER.CPP
C:\USERS\MAGSHIMIM\SOURCE\REPOS\TRIVIA\TRIVIA\DEBUG\VC141.PDB
C:\USERS\MAGSHIMIM\SOURCE\REPOS\TRIVIA\TRIVIA\DEBUG\VC141.IDB
C:\USERS\MAGSHIMIM\SOURCE\REPOS\TRIVIA\TRIVIA\DEBUG\SERVER.OBJ
C:\USERS\MAGSHIMIM\SOURCE\REPOS\TRIVIA\TRIVIA\DEBUG\REQUESTHANDLERFACTORY.OBJ
C:\USERS\MAGSHIMIM\SOURCE\REPOS\TRIVIA\TRIVIA\DEBUG\PROJECTEXCPTIONS.OBJ
C:\USERS\MAGSHIMIM\SOURCE\REPOS\TRIVIA\TRIVIA\DEBUG\MAIN.OBJ
C:\USERS\MAGSHIMIM\SOURCE\REPOS\TRIVIA\TRIVIA\DEBUG\JSONRESPONSEPACKETSERIALIZER.OBJ
C:\USERS\MAGSHIMIM\SOURCE\REPOS\TRIVIA\TRIVIA\DEBUG\JSONREQUESTPACKETDESERIALIZER.OBJ
C:\USERS\MAGSHIMIM\SOURCE\REPOS\TRIVIA\TRIVIA\DEBUG\ROOMMEMBERREQUESTHANDLER.OBJ
C:\USERS\MAGSHIMIM\SOURCE\REPOS\TRIVIA\TRIVIA\DEBUG\ROOMADMINREQUESTHANDLER.OBJ
C:\USERS\MAGSHIMIM\SOURCE\REPOS\TRIVIA\TRIVIA\DEBUG\MENUREQUESTHANDLER.OBJ
C:\USERS\MAGSHIMIM\SOURCE\REPOS\TRIVIA\TRIVIA\DEBUG\LOGINREQUESTHANDLER.OBJ
C:\USERS\MAGSHIMIM\SOURCE\REPOS\TRIVIA\TRIVIA\DEBUG\COMMUNICATOR.OBJ
^C:\USERS\MAGSHIMIM\SOURCE\REPOS\TRIVIA\TRIVIA\COMMUNICATOR.CPP
C:\USERS\MAGSHIMIM\SOURCE\REPOS\TRIVIA\TRIVIA\DEBUG\VC141.PDB
^C:\USERS\MAGSHIMIM\SOURCE\REPOS\TRIVIA\TRIVIA\HANDLERS\LOGINREQUESTHANDLER.CPP
C:\USERS\MAGSHIMIM\SOURCE\REPOS\TRIVIA\TRIVIA\DEBUG\VC141.PDB
^C:\USERS\MAGSHIMIM\SOURCE\REPOS\TRIVIA\TRIVIA\JSONREQUESTPACKETDESERIALIZER.CPP
C:\USERS\MAGSHIMIM\SOURCE\REPOS\TRIVIA\TRIVIA\DEBUG\VC141.PDB
^C:\USERS\MAGSHIMIM\SOURCE\REPOS\TRIVIA\TRIVIA\JSONRESPONSEPACKETSERIALIZER.CPP
C:\USERS\MAGSHIMIM\SOURCE\REPOS\TRIVIA\TRIVIA\DEBUG\VC141.PDB
^C:\USERS\MAGSHIMIM\SOURCE\REPOS\TRIVIA\TRIVIA\MAIN.CPP
C:\USERS\MAGSHIMIM\SOURCE\REPOS\TRIVIA\TRIVIA\DEBUG\VC141.PDB
^C:\USERS\MAGSHIMIM\SOURCE\REPOS\TRIVIA\TRIVIA\PROJECTEXCPTIONS.CPP
C:\USERS\MAGSHIMIM\SOURCE\REPOS\TRIVIA\TRIVIA\DEBUG\VC141.PDB
^C:\USERS\MAGSHIMIM\SOURCE\REPOS\TRIVIA\TRIVIA\REQUESTHANDLERFACTORY.CPP
C:\USERS\MAGSHIMIM\SOURCE\REPOS\TRIVIA\TRIVIA\DEBUG\VC141.PDB
^C:\USERS\MAGSHIMIM\SOURCE\REPOS\TRIVIA\TRIVIA\SERVER.CPP
C:\USERS\MAGSHIMIM\SOURCE\REPOS\TRIVIA\TRIVIA\DEBUG\VC141.PDB
^C:\USERS\MAGSHIMIM\SOURCE\REPOS\TRIVIA\TRIVIA\HELPER.CPP
C:\USERS\MAGSHIMIM\SOURCE\REPOS\TRIVIA\TRIVIA\DEBUG\VC141.PDB
C:\USERS\MAGSHIMIM\SOURCE\REPOS\TRIVIA\TRIVIA\DEBUG\VC141.IDB
C:\USERS\MAGSHIMIM\SOURCE\REPOS\TRIVIA\TRIVIA\DEBUG\HELPER.OBJ
^C:\USERS\MAGSHIMIM\SOURCE\REPOS\TRIVIA\TRIVIA\HANDLERS\ROOMADMINREQUESTHANDLER.CPP|C:\USERS\MAGSHIMIM\SOURCE\REPOS\TRIVIA\TRIVIA\HANDLERS\ROOMMEMBERREQUESTHANDLER.CPP
C:\USERS\MAGSHIMIM\SOURCE\REPOS\TRIVIA\TRIVIA\DEBUG\VC141.PDB
C:\USERS\MAGSHIMIM\SOURCE\REPOS\TRIVIA\TRIVIA\DEBUG\VC141.IDB
C:\USERS\MAGSHIMIM\SOURCE\REPOS\TRIVIA\TRIVIA\DEBUG\ROOMMEMBERREQUESTHANDLER.OBJ
C:\USERS\MAGSHIMIM\SOURCE\REPOS\TRIVIA\TRIVIA\DEBUG\ROOMADMINREQUESTHANDLER.OBJ
^C:\USERS\MAGSHIMIM\SOURCE\REPOS\TRIVIA\TRIVIA\HANDLERS\ROOMADMINREQUESTHANDLER.CPP
C:\USERS\MAGSHIMIM\SOURCE\REPOS\TRIVIA\TRIVIA\DEBUG\VC141.PDB
^C:\USERS\MAGSHIMIM\SOURCE\REPOS\TRIVIA\TRIVIA\HANDLERS\ROOMMEMBERREQUESTHANDLER.CPP
C:\USERS\MAGSHIMIM\SOURCE\REPOS\TRIVIA\TRIVIA\DEBUG\VC141.PDB
^C:\USERS\MAGSHIMIM\SOURCE\REPOS\TRIVIA\TRIVIA\HANDLERS\MENUREQUESTHANDLER.CPP
C:\USERS\MAGSHIMIM\SOURCE\REPOS\TRIVIA\TRIVIA\DEBUG\VC141.PDB
C:\USERS\MAGSHIMIM\SOURCE\REPOS\TRIVIA\TRIVIA\DEBUG\VC141.IDB
C:\USERS\MAGSHIMIM\SOURCE\REPOS\TRIVIA\TRIVIA\DEBUG\MENUREQUESTHANDLER.OBJ
