^C:\USERS\MAGSHIMIM\SOURCE\REPOS\TRIVIA\TRIVIA\DEBUG\BUFFER.OBJ|C:\USERS\MAGSHIMIM\SOURCE\REPOS\TRIVIA\TRIVIA\DEBUG\CLOSEROOMRESPONSE.OBJ|C:\USERS\MAGSHIMIM\SOURCE\REPOS\TRIVIA\TRIVIA\DEBUG\COMMUNICATOR.OBJ|C:\USERS\MAGSHIMIM\SOURCE\REPOS\TRIVIA\TRIVIA\DEBUG\CREATEROOMREQUEST.OBJ|C:\USERS\MAGSHIMIM\SOURCE\REPOS\TRIVIA\TRIVIA\DEBUG\CREATEROOMRESPONSE.OBJ|C:\USERS\MAGSHIMIM\SOURCE\REPOS\TRIVIA\TRIVIA\DEBUG\ERRORRESPONSE.OBJ|C:\USERS\MAGSHIMIM\SOURCE\REPOS\TRIVIA\TRIVIA\DEBUG\GETPLAYERSINROOMREQUEST.OBJ|C:\USERS\MAGSHIMIM\SOURCE\REPOS\TRIVIA\TRIVIA\DEBUG\GETPLAYERSINROOMRESPONSE.OBJ|C:\USERS\MAGSHIMIM\SOURCE\REPOS\TRIVIA\TRIVIA\DEBUG\GETROOMSRESPONSE.OBJ|C:\USERS\MAGSHIMIM\SOURCE\REPOS\TRIVIA\TRIVIA\DEBUG\GETROOMSTATERESPONSE.OBJ|C:\USERS\MAGSHIMIM\SOURCE\REPOS\TRIVIA\TRIVIA\DEBUG\HELPER.OBJ|C:\USERS\MAGSHIMIM\SOURCE\REPOS\TRIVIA\TRIVIA\DEBUG\HIGHSCORERESPONSE.OBJ|C:\USERS\MAGSHIMIM\SOURCE\REPOS\TRIVIA\TRIVIA\DEBUG\HIGHSCORETABLE.OBJ|C:\USERS\MAGSHIMIM\SOURCE\REPOS\TRIVIA\TRIVIA\DEBUG\IDATABASE.OBJ|C:\USERS\MAGSHIMIM\SOURCE\REPOS\TRIVIA\TRIVIA\DEBUG\IREQUEST.OBJ|C:\USERS\MAGSHIMIM\SOURCE\REPOS\TRIVIA\TRIVIA\DEBUG\IREQUESTHANDLER.OBJ|C:\USERS\MAGSHIMIM\SOURCE\REPOS\TRIVIA\TRIVIA\DEBUG\IRESPONSE.OBJ|C:\USERS\MAGSHIMIM\SOURCE\REPOS\TRIVIA\TRIVIA\DEBUG\JOINROOMREQUEST.OBJ|C:\USERS\MAGSHIMIM\SOURCE\REPOS\TRIVIA\TRIVIA\DEBUG\JOINROOMRESPONSE.OBJ|C:\USERS\MAGSHIMIM\SOURCE\REPOS\TRIVIA\TRIVIA\DEBUG\JSONREQUESTPACKETDESERIALIZER.OBJ|C:\USERS\MAGSHIMIM\SOURCE\REPOS\TRIVIA\TRIVIA\DEBUG\JSONRESPONSEPACKETSERIALIZER.OBJ|C:\USERS\MAGSHIMIM\SOURCE\REPOS\TRIVIA\TRIVIA\DEBUG\LEAVEROOMRESPONSE.OBJ|C:\USERS\MAGSHIMIM\SOURCE\REPOS\TRIVIA\TRIVIA\DEBUG\LOGGEDUSER.OBJ|C:\USERS\MAGSHIMIM\SOURCE\REPOS\TRIVIA\TRIVIA\DEBUG\LOGINMANAGER.OBJ|C:\USERS\MAGSHIMIM\SOURCE\REPOS\TRIVIA\TRIVIA\DEBUG\LOGINREQUEST.OBJ|C:\USERS\MAGSHIMIM\SOURCE\REPOS\TRIVIA\TRIVIA\DEBUG\LOGINREQUESTHANDLER.OBJ|C:\USERS\MAGSHIMIM\SOURCE\REPOS\TRIVIA\TRIVIA\DEBUG\LOGINRESPONSE.OBJ|C:\USERS\MAGSHIMIM\SOURCE\REPOS\TRIVIA\TRIVIA\DEBUG\LOGOUTRESPONSE.OBJ|C:\USERS\MAGSHIMIM\SOURCE\REPOS\TRIVIA\TRIVIA\DEBUG\MAIN.OBJ|C:\USERS\MAGSHIMIM\SOURCE\REPOS\TRIVIA\TRIVIA\DEBUG\MENUREQUESTHANDLER.OBJ|C:\USERS\MAGSHIMIM\SOURCE\REPOS\TRIVIA\TRIVIA\DEBUG\PROJECTEXCPTIONS.OBJ|C:\USERS\MAGSHIMIM\SOURCE\REPOS\TRIVIA\TRIVIA\DEBUG\REQUEST.OBJ|C:\USERS\MAGSHIMIM\SOURCE\REPOS\TRIVIA\TRIVIA\DEBUG\REQUESTHANDLERFACTORY.OBJ|C:\USERS\MAGSHIMIM\SOURCE\REPOS\TRIVIA\TRIVIA\DEBUG\REQUESTRESULT.OBJ|C:\USERS\MAGSHIMIM\SOURCE\REPOS\TRIVIA\TRIVIA\DEBUG\ROOM.OBJ|C:\USERS\MAGSHIMIM\SOURCE\REPOS\TRIVIA\TRIVIA\DEBUG\ROOMADMINREQUESTHANDLER.OBJ|C:\USERS\MAGSHIMIM\SOURCE\REPOS\TRIVIA\TRIVIA\DEBUG\ROOMDATA.OBJ|C:\USERS\MAGSHIMIM\SOURCE\REPOS\TRIVIA\TRIVIA\DEBUG\ROOMMANAGER.OBJ|C:\USERS\MAGSHIMIM\SOURCE\REPOS\TRIVIA\TRIVIA\DEBUG\ROOMMEMBERREQUESTHANDLER.OBJ|C:\USERS\MAGSHIMIM\SOURCE\REPOS\TRIVIA\TRIVIA\DEBUG\SERVER.OBJ|C:\USERS\MAGSHIMIM\SOURCE\REPOS\TRIVIA\TRIVIA\DEBUG\SIGNUPREQUEST.OBJ|C:\USERS\MAGSHIMIM\SOURCE\REPOS\TRIVIA\TRIVIA\DEBUG\SIGNUPRESPONSE.OBJ|C:\USERS\MAGSHIMIM\SOURCE\REPOS\TRIVIA\TRIVIA\DEBUG\SQLITE3.OBJ|C:\USERS\MAGSHIMIM\SOURCE\REPOS\TRIVIA\TRIVIA\DEBUG\SQLITEDATABASE.OBJ|C:\USERS\MAGSHIMIM\SOURCE\REPOS\TRIVIA\TRIVIA\DEBUG\STARTGAMERESPONSE.OBJ|C:\USERS\MAGSHIMIM\SOURCE\REPOS\TRIVIA\TRIVIA\DEBUG\WSAINITIALIZER.OBJ
C:\USERS\MAGSHIMIM\SOURCE\REPOS\TRIVIA\DEBUG\TRIVIA.EXE
C:\USERS\MAGSHIMIM\SOURCE\REPOS\TRIVIA\DEBUG\TRIVIA.ILK
C:\USERS\MAGSHIMIM\SOURCE\REPOS\TRIVIA\DEBUG\TRIVIA.PDB
